0, 0
0, 0
0, 0
0, 0
0, 0
0, 0
0, 0
0, 0
0, 0
0, 0
0, 0
0, 0
0, 0
0, 0
0, 0
0, 0
-9.651869E-07, 0.008615584
-4.068981E-05, 0.09658227
-0.0001218823, 0.2003755
-0.0002110614, 0.3036195
-0.0003011877, 0.4088733
-0.0003947556, 0.5156358
-0.0004898318, 0.6194484
-0.0005894552, 0.7241857
-0.0007016941, 0.8343279
-0.0008115766, 0.9385055
-0.0009102704, 1.03926
-0.001009221, 1.142912
-0.001112989, 1.248744
-0.001212775, 1.351868
-0.001308461, 1.454889
-0.001407271, 1.558966
-0.001501056, 1.662031
-0.001592364, 1.76418
-0.001682643, 1.866291
-0.001774035, 1.96888
-0.001808556, 2.063923
-0.001802206, 2.07987
-0.001802206, 2.07987
-0.001802206, 2.07987
-0.001802206, 2.07987
-0.001802206, 2.07987
-0.001802206, 2.07987
-0.001802206, 2.07987
-0.001802206, 2.07987
-0.001802206, 2.07987
-0.001802206, 2.07987
-0.001802206, 2.07987
-0.001802206, 2.07987
-0.001802206, 2.07987
-0.001802206, 2.07987
-0.001802206, 2.07987
-0.001802216, 2.07987
-0.001801228, 2.07987
-0.001800706, 2.07987
-0.001800845, 2.07987
-0.001802251, 2.07987
-0.001803596, 2.07987
-0.001805568, 2.07987
-0.001806067, 2.07987
-0.001805744, 2.07987
-0.00180466, 2.07987
-0.001803224, 2.079872
-0.001803448, 2.079872
-0.001803666, 2.079872
-0.001803666, 2.079872
-0.001803666, 2.079872
-0.001803666, 2.079872
-0.001803666, 2.079872
-0.001803666, 2.079872
-0.001803666, 2.079872
