0, 0
1.5407E-11, 0.0690498
1.24249E-10, 0.1275509
3.664451E-10, 0.2096947
7.256145E-10, 0.2926079
1.202083E-09, 0.374898
1.780247E-09, 0.4561265
2.459985E-09, 0.5355467
3.258378E-09, 0.6158906
4.177167E-09, 0.6964347
5.196666E-09, 0.7750869
6.305921E-09, 0.8561176
7.59695E-09, 0.9364215
8.786852E-09, 1.02073
8.948908E-09, 1.116926
8.948908E-09, 1.148625
8.948908E-09, 1.148625
8.948907E-09, 1.148625
8.948907E-09, 1.148625
2.92112E-08, 1.148625
-5.205472E-07, 1.148624
-1.392194E-06, 1.148624
-1.826457E-06, 1.148624
-2.49488E-06, 1.148623
-2.88231E-06, 1.148623
-3.314018E-06, 1.148623
-3.655751E-06, 1.148622
-4.021327E-06, 1.148621
-4.053116E-06, 1.14862
-4.043946E-06, 1.14862
-4.061631E-06, 1.14862
-4.153985E-06, 1.14862
-3.703435E-06, 1.148619
-3.474099E-06, 1.148619
-3.139178E-06, 1.148618
-2.857049E-06, 1.148618
-2.861023E-06, 1.148618
-2.729893E-06, 1.148618
-2.539158E-06, 1.148618
-2.622604E-06, 1.148618
-2.633248E-06, 1.148618
-2.39412E-06, 1.148617
-1.773238E-06, 1.148617
-1.773238E-06, 1.148618
-1.670917E-06, 1.148617
-1.553446E-06, 1.148618
-1.601875E-06, 1.148618
-1.601875E-06, 1.148618
-1.386091E-06, 1.148618
-1.298264E-06, 1.148618
-1.298264E-06, 1.148618
-1.298264E-06, 1.148618
-0.005412165, 1.205356
-0.01729902, 1.329963
-0.02942539, 1.457073
-0.04153562, 1.584028
-0.046597, 1.637091
-0.046597, 1.637091
-0.046597, 1.637091
-0.046597, 1.637091
-0.046597, 1.637091
-0.046597, 1.637091
-0.046597, 1.637091
-0.046597, 1.637091
-0.046597, 1.637091
