0, 1
0, 1
0, 1
0, 1
0, 1
0, 1
0, 1
0, 1
0, 1
0, 1
0, 1
0.03607843, 0.9987482
0.09057351, 0.9958897
0.09057356, 0.9958897
0.09057365, 0.9958897
0.08880899, 0.9960471
0.07963745, 0.9968184
0.06743564, 0.997717
0.05475612, 0.9984932
0.03920458, 0.9991726
-0.05892636, 0.997908
-0.08065217, 0.9967408
-0.08479004, 0.9963989
-0.08475763, 0.9964016
-0.08007725, 0.9967846
-0.06861089, 0.997637
-0.05623103, 0.9984116
-0.04365626, 0.9990396
-0.03115064, 0.9995087
-0.01841802, 0.9998233
-0.006048975, 0.9999759
0.006401382, 0.9999725
0.01929501, 0.9998071
0.03210843, 0.9994777
0.0430927, 0.9990695
0.04444895, 0.9990118
0.04444882, 0.9990117
0.04444871, 0.9990118
0.04444859, 0.9990118
0.04444846, 0.9990118
0.04444839, 0.9990118
0.04444838, 0.9990118
0.04248028, 0.9990956
0.03239089, 0.999469
0.01981161, 0.9997969
0.00733501, 0.9999669
-0.005347024, 0.9999788
-0.01819945, 0.9998276
-0.0309224, 0.9995152
-0.04306417, 0.9990664
-0.05566025, 0.9984428
-0.06703823, 0.9977481
-0.06883812, 0.997628
-0.06883813, 0.997628
-0.06883814, 0.9976279
-0.06883813, 0.997628
-0.06883807, 0.9976279
-0.06883801, 0.997628
-0.06883796, 0.997628
-0.06883789, 0.997628
-0.06883783, 0.997628
-0.06883776, 0.997628
-0.06883769, 0.997628
-0.06883764, 0.9976279
-0.06883758, 0.997628
-0.06883752, 0.997628
-0.06883752, 0.997628
-0.06842043, 0.9976562
-0.06142505, 0.9981067
-0.04939394, 0.9987727
-0.03701271, 0.9993086
-0.02466576, 0.9996895
-0.01213227, 0.9999195
0.0007109978, 0.999993
0.01333678, 0.9999045
0.02593718, 0.9996568
0.03779251, 0.9992802
0.04986885, 0.9987491
0.04507326, 0.9987441
-0.09342453, 0.9944817
-0.2550303, 0.9657704
-0.4097973, 0.9109548
-0.4890039, 0.8722587
-0.4733756, 0.8808505
-0.4622618, 0.886739
-0.4596248, 0.8881133
-0.4631409, 0.8862813
-0.4202848, 0.9064142
-0.2654293, 0.9629728
-0.1061773, 0.9932054
0.05469084, 0.9973435
0.1638026, 0.9864469
0.149172, 0.9887989
0.1342409, 0.9909407
0.1210917, 0.9926329
0.07231449, 0.9966504
-0.08103967, 0.9956037
-0.1813909, 0.9833632
-0.2040645, 0.9789467
-0.2181981, 0.9758967
-0.2318945, 0.9727305
-0.2482823, 0.9686748
-0.2649397, 0.9642531
-0.2796673, 0.9600885
-0.2036373, 0.9780186
-0.06116987, 0.9976445
-0.05031425, 0.998719
-0.06548403, 0.9978463
-0.1486722, 0.987865
-0.2610462, 0.9652527
-0.2680288, 0.9634111
-0.2674237, 0.9635788
-0.2603578, 0.9655074
-0.2443921, 0.9695876
-0.1430179, 0.9892682
-0.09932526, 0.9950375
-0.08312338, 0.9965314
-0.06994514, 0.997544
-0.05713522, 0.9983596
-0.04475437, 0.998992
-0.03199561, 0.9994808
-0.01923552, 0.9998084
-0.006237137, 0.9999734
0.006722098, 0.9999706
0.01925361, 0.9998084
0.03190623, 0.9994839
0.04416111, 0.9990189
0.05637926, 0.998403
0.06935668, 0.9975846
0.08261117, 0.9965745
0.09569599, 0.9954036
0.1071582, 0.9942392
0.1093429, 0.9940042
0.1093431, 0.9940042
0.1093431, 0.9940042
0.1093431, 0.9940042
0.1093432, 0.9940042
0.1093432, 0.9940042
0.1093432, 0.9940042
0.1093434, 0.9940042
0.1093434, 0.9940042
0.1093435, 0.9940042
0.1093435, 0.9940042
0.1093436, 0.9940042
0.1093437, 0.9940042
0.1093439, 0.9940042
0.109344, 0.994004
0.1093441, 0.994004
0.1093442, 0.994004
0.1093443, 0.994004
0.1093444, 0.994004
0.1093445, 0.994004
0.1093445, 0.994004
0.1092095, 0.9940187
0.1040831, 0.994565
0.09308214, 0.9956523
0.08033974, 0.9967603
0.0673236, 0.9977238
0.05491486, 0.9984851
0.04262359, 0.9990848
0.02950312, 0.9995569
0.01628485, 0.9998606
0.005150019, 0.999984
0.002993417, 0.9999955
0.002993412, 0.9999955
0.002993406, 0.9999955
0.002993393, 0.9999954
0.002993384, 0.9999954
0.002993376, 0.9999954
