0, 0
0, 0.04065111
0, 0.1443765
0, 0.2686147
0, 0.400614
0, 0.528932
0, 0.6561641
0, 0.7817732
0, 0.9096901
0, 1.035671
0, 1.159766
0, 1.284689
0, 1.411647
0, 1.536311
0, 1.662918
0, 1.78985
0, 1.915542
0, 2.04217
0, 2.167549
0, 2.300877
0, 2.419818
0, 2.452871
0, 2.452871
0, 2.452871
0, 2.452871
0, 2.452871
0, 2.452871
0, 2.452871
0, 2.452871
0, 2.452871
0, 2.452871
0, 2.452871
0, 2.452871
0, 2.452871
0, 2.452871
0, 2.452871
0, 2.452871
0, 2.452871
0, 2.452871
0, 2.452871
0, 2.452871
0, 2.452871
0, 2.452871
0, 2.452871
0, 2.452871
0, 2.452871
0, 2.452871
0, 2.452871
0, 2.452871
0, 2.452871
0, 2.452871
0, 2.452871
0, 2.452871
0, 2.452871
0, 2.452871
0, 2.452871
0, 2.452871
0, 2.452871
0, 2.452871
0, 2.452871
0, 2.452871
0, 2.452871
0, 2.452871
0, 2.452871
0, 2.452871
0, 2.452871
-2.127714E-08, 2.452871
-9.220093E-08, 2.452871
-9.220093E-08, 2.452871
-9.220093E-08, 2.452871
-9.220093E-08, 2.452871
-9.220093E-08, 2.452871
-9.220093E-08, 2.452871
-9.220093E-08, 2.452871
-9.220093E-08, 2.452871
-9.220093E-08, 2.452871
-9.220093E-08, 2.452871
-9.220093E-08, 2.452871
-9.220093E-08, 2.452871
-9.220093E-08, 2.452871
-9.220093E-08, 2.452871
-9.220093E-08, 2.452871
-9.220093E-08, 2.452871
