sep=;
timestamp;reset_count;virtual_distance_between_resets_median;time_elapsed_between_resets_median;sum_injected_translation;sum_injected_rotation_g_r;sum_injected_rotation_g_c;sum_real_distance_travelled;sum_virtual_distance_travelled;min_g_t;max_g_t;min_g_r;max_g_r;min_g_c;max_g_c;g_t_average;injected_translation_average;g_r_average;injected_rotation_from_rotation_gain_average;g_c_average;injected_rotation_from_curvature_gain_average;injected_rotation_average;real_position_average;virtual_position_average;distance_to_boundary_average;distance_to_center_average;normalized_distance_to_boundary_average;experiment_duration;average_sampling_interval;normalized_distance_to_center_average;
0;0;0;0;0;0;0;0;0;N/A;N/A;N/A;N/A;N/A;N/A;0;0;0;0;0;0;0;(NaN, NaN);(NaN, NaN);0;0;0;0;0;0;
0.02;0;0;0;0;0;0;0;0;N/A;N/A;N/A;N/A;N/A;N/A;0;0;0;0;0;0;0;(NaN, NaN);(NaN, NaN);0;0;0;0;0;0;
0.3533334;0;0;0;0;0;0;0;0;N/A;N/A;N/A;N/A;N/A;N/A;0;0;0;0;0;0;0;(0.0, 0.0);(0.0, 0.0);2;0;0.7071068;0;0.3533334;0;
0.4008701;0;0;0;0;0;0;0;0;N/A;N/A;N/A;N/A;N/A;N/A;0;0;0;0;0;0;0;(0.0, 0.0);(0.0, 0.0);2;0;0.7071068;0;0.3533334;0;
0.4128377;0;0;0;0;0;0;0;0;N/A;N/A;N/A;N/A;N/A;N/A;0;0;0;0;0;0;0;(0.0, 0.0);(0.0, 0.0);2;0;0.7071068;0;0.3533334;0;
0.42182;0;0;0;0;0;0;0;0;N/A;N/A;N/A;N/A;N/A;N/A;0;0;0;0;0;0;0;(0.0, 0.0);(0.0, 0.0);2;0;0.7071068;0;0.3533334;0;
0.4314221;0;0;0;0;0;0;0;0;N/A;N/A;N/A;N/A;N/A;N/A;0;0;0;0;0;0;0;(0.0, 0.0);(0.0, 0.0);2;0;0.7071068;0;0.3533334;0;
0.44098;0;0;0;0;0;0;0;0;N/A;N/A;N/A;N/A;N/A;N/A;0;0;0;0;0;0;0;(0.0, 0.0);(0.0, 0.0);2;0;0.7071068;0;0.3533334;0;
0.4479247;0;0;0;0;0;0;0;0;N/A;N/A;N/A;N/A;N/A;N/A;0;0;0;0;0;0;0;(0.0, 0.0);(0.0, 0.0);2;0;0.7071068;0;0.3533334;0;
0.4548689;0;0;0;0;0;0;0;0;N/A;N/A;N/A;N/A;N/A;N/A;0;0;0;0;0;0;0;(0.0, 0.0);(0.0, 0.0);2;0;0.7071068;0;0.2274345;0;
0.4618136;0;0;0;0;0;0;0;0;N/A;N/A;N/A;N/A;N/A;N/A;0;0;0;0;0;0;0;(0.0, 0.0);(0.0, 0.0);2;0;0.7071068;0;0.2274345;0;
0.4688714;0;0;0;0;0;0;0;0;N/A;N/A;N/A;N/A;N/A;N/A;0;0;0;0;0;0;0;(0.0, 0.0);(0.0, 0.0);2;0;0.7071068;0;0.2274345;0;
0.475816;0;0;0;0;0;0;0;0;N/A;N/A;N/A;N/A;N/A;N/A;0;0;0;0;0;0;0;(0.0, 0.0);(0.0, 0.0);2;0;0.7071068;0;0.2274345;0;
0.4834096;0;0;0;0;0;0;0;0;N/A;N/A;N/A;N/A;N/A;N/A;0;0;0;0;0;0;0;(0.0, 0.0);(0.0, 0.0);2;0;0.7071068;0;0.2274345;0;
0.4903539;0;0;0;0;0;0;0;0;N/A;N/A;N/A;N/A;N/A;N/A;0;0;0;0;0;0;0;(0.0, 0.0);(0.0, 0.0);2;0;0.7071068;0;0.2274345;0;
0.4972984;0;0;0;0;0;0;0;0;N/A;N/A;N/A;N/A;N/A;N/A;0;0;0;0;0;0;0;(0.0, 0.0);(0.0, 0.0);2;0;0.7071068;0;0.2274345;0;
0.5042431;0;0;0;0;0;0;0;0;N/A;N/A;N/A;N/A;N/A;N/A;0;0;0;0;0;0;0;(0.0, 0.0);(0.0, 0.0);2;0;0.7071068;0;0.2274345;0;
0.5114055;0;0;0;0;0;0;0;0;N/A;N/A;N/A;N/A;N/A;N/A;0;0;0;0;0;0;0;(0.0, 0.0);(0.0, 0.0);2;0;0.7071068;0;0.2274345;0;
0.5189618;0;0;0;0;0;0;0;0;N/A;N/A;N/A;N/A;N/A;N/A;0;0;0;0;0;0;0;(0.0, 0.0);(0.0, 0.0);2;0;0.7071068;0;0.2274345;0;
0.5270631;0;0;0;0;0;0;0;0;N/A;N/A;N/A;N/A;N/A;N/A;0;0;0;0;0;0;0;(0.0, 0.0);(0.0, 0.0);2;0;0.7071068;0;0.2274345;0;
0.5376725;0;0;0;0;0;0;0;0;N/A;N/A;N/A;N/A;N/A;N/A;0;0;0;0;0;0;0;(0.0, 0.0);(0.0, 0.0);2;0;0.7071068;0;0.2274345;0;
0.5474085;0;0;0;0;0;0;0;0;N/A;N/A;N/A;N/A;N/A;N/A;0;0;0;0;0;0;0;(0.0, 0.0);(0.0, 0.0);2;0;0.7071068;0;0.2274345;0;
0.5568795;0;0;0;0;0;0;0;0;N/A;N/A;N/A;N/A;N/A;N/A;0;0;0;0;0;0;0;(0.0, 0.0);(0.0, 0.0);2;0;0.7071068;0;0.1856265;0;
0.5642467;0;0;0;0;0;0;0;0;N/A;N/A;N/A;N/A;N/A;N/A;0;0;0;0;0;0;0;(0.0, 0.0);(0.0, 0.0);2;0;0.7071068;0;0.1856265;0;
0.5737535;0;0;0;0;0;0;0;0;N/A;N/A;N/A;N/A;N/A;N/A;0;0;0;0;0;0;0;(0.0, 0.0);(0.0, 0.0);2;0;0.7071068;0;0.1856265;0;
0.5825346;0;0;0;0;0;0;0;0;N/A;N/A;N/A;N/A;N/A;N/A;0;0;0;0;0;0;0;(0.0, 0.0);(0.0, 0.0);2;0;0.7071068;0;0.1856265;0;
0.5916221;0;0;0;0;0;0;0;0;N/A;N/A;N/A;N/A;N/A;N/A;0;0;0;0;0;0;0;(0.0, 0.0);(0.0, 0.0);2;0;0.7071068;0;0.1856265;0;
0.600419;0;0;0;0;0;0;0;0;N/A;N/A;N/A;N/A;N/A;N/A;0;0;0;0;0;0;0;(0.0, 0.0);(0.0, 0.0);2;0;0.7071068;0;0.1856265;0;
0.6105353;0;0;0;0;0;0;0;0;N/A;N/A;N/A;N/A;N/A;N/A;0;0;0;0;0;0;0;(0.0, 0.0);(0.0, 0.0);2;0;0.7071068;0;0.1856265;0;
0.6212527;0;0;0;0;0;0;0;0;N/A;N/A;N/A;N/A;N/A;N/A;0;0;0;0;0;0;0;(0.0, 0.0);(0.0, 0.0);2;0;0.7071068;0;0.1856265;0;
0.6337022;0;0;0;0;0;0;0;0;N/A;N/A;N/A;N/A;N/A;N/A;0;0;0;0;0;0;0;(0.0, 0.0);(0.0, 0.0);2;0;0.7071068;0;0.1856265;0;
0.6442145;0;0;0;0;0;0;0;0;N/A;N/A;N/A;N/A;N/A;N/A;0;0;0;0;0;0;0;(0.0, 0.0);(0.0, 0.0);2;0;0.7071068;0;0.1856265;0;
0.6537644;0;0;0;0;0;0;0;0;N/A;N/A;N/A;N/A;N/A;N/A;0;0;0;0;0;0;0;(0.0, 0.0);(0.0, 0.0);2;0;0.7071068;0;0.1856265;0;
0.663389;0;0;0;0;0;0;0;0;N/A;N/A;N/A;N/A;N/A;N/A;0;0;0;0;0;0;0;(0.0, 0.0);(0.0, 0.0);2;0;0.7071068;0;0.1658473;0;
0.6719943;0;0;0;0;0;0;0;0;N/A;N/A;N/A;N/A;N/A;N/A;0;0;0;0;0;0;0;(0.0, 0.0);(0.0, 0.0);2;0;0.7071068;0;0.1658473;0;
0.6792719;0;0;0;0;0;0;0;0;N/A;N/A;N/A;N/A;N/A;N/A;0;0;0;0;0;0;0;(0.0, 0.0);(0.0, 0.0);2;0;0.7071068;0;0.1658473;0;
0.6865885;0;0;0;0;0;0;0;0;N/A;N/A;N/A;N/A;N/A;N/A;0;0;0;0;0;0;0;(0.0, 0.0);(0.0, 0.0);2;0;0.7071068;0;0.1658473;0;
0.6938781;0;0;0;0;0;0;0;0;N/A;N/A;N/A;N/A;N/A;N/A;0;0;0;0;0;0;0;(0.0, 0.0);(0.0, 0.0);2;0;0.7071068;0;0.1658473;0;
0.7035043;0;0;0;0;0;0;0;0;N/A;N/A;N/A;N/A;N/A;N/A;0;0;0;0;0;0;0;(0.0, 0.0);(0.0, 0.0);2;0;0.7071068;0;0.1658473;0;
0.7115788;0;0;0;0;0;0;0;0;N/A;N/A;N/A;N/A;N/A;N/A;0;0;0;0;0;0;0;(0.0, 0.0);(0.0, 0.0);2;0;0.7071068;0;0.1658473;0;
0.7204794;0;0;0;0;0;0;0;0;N/A;N/A;N/A;N/A;N/A;N/A;0;0;0;0;0;0;0;(0.0, 0.0);(0.0, 0.0);2;0;0.7071068;0;0.1658473;0;
0.7277958;0;0;0;0;0;0;0;0;N/A;N/A;N/A;N/A;N/A;N/A;0;0;0;0;0;0;0;(0.0, 0.0);(0.0, 0.0);2;0;0.7071068;0;0.1658473;0;
0.7360249;0;0;0;0;0;0;0;0;N/A;N/A;N/A;N/A;N/A;N/A;0;0;0;0;0;0;0;(0.0, 0.0);(0.0, 0.0);2;0;0.7071068;0;0.1658473;0;
0.7434571;0;0;0;0;0;0;0;0;N/A;N/A;N/A;N/A;N/A;N/A;0;0;0;0;0;0;0;(0.0, 0.0);(0.0, 0.0);2;0;0.7071068;0;0.1658473;0;
0.7518595;0;0;0;0;0;0;0;0;N/A;N/A;N/A;N/A;N/A;N/A;0;0;0;0;0;0;0;(0.0, 0.0);(0.0, 0.0);2;0;0.7071068;0;0.1658473;0;
0.7596651;0;0;0;0;0;0;0;0;N/A;N/A;N/A;N/A;N/A;N/A;0;0;0;0;0;0;0;(0.0, 0.0);(0.0, 0.0);2;0;0.7071068;0;0.1658473;0;
0.7671747;0;0;0;0;0;0;0;0;N/A;N/A;N/A;N/A;N/A;N/A;0;0;0;0;0;0;0;(0.0, 0.0);(0.0, 0.0);2;0;0.7071068;0;0.1534349;0;
0.7748502;0;0;0;0;0;0;0;0;N/A;N/A;N/A;N/A;N/A;N/A;0;0;0;0;0;0;0;(0.0, 0.0);(0.0, 0.0);2;0;0.7071068;0;0.1534349;0;
0.7820032;0;0;0;0;0;0;0;0;N/A;N/A;N/A;N/A;N/A;N/A;0;0;0;0;0;0;0;(0.0, 0.0);(0.0, 0.0);2;0;0.7071068;0;0.1534349;0;
0.7896512;0;0;0;0;0;0;0;0;N/A;N/A;N/A;N/A;N/A;N/A;0;0;0;0;0;0;0;(0.0, 0.0);(0.0, 0.0);2;0;0.7071068;0;0.1534349;0;
0.7968668;0;0;0;0;0;0;0;0;N/A;N/A;N/A;N/A;N/A;N/A;0;0;0;0;0;0;0;(0.0, 0.0);(0.0, 0.0);2;0;0.7071068;0;0.1534349;0;
0.8043218;0;0;0;0;0;0;0;0;N/A;N/A;N/A;N/A;N/A;N/A;0;0;0;0;0;0;0;(0.0, 0.0);(0.0, 0.0);2;0;0.7071068;0;0.1534349;0;
0.8117619;0;0;0;0;0;0;0;0;N/A;N/A;N/A;N/A;N/A;N/A;0;0;0;0;0;0;0;(0.0, 0.0);(0.0, 0.0);2;0;0.7071068;0;0.1534349;0;
0.818707;0;0;0;0;0;0;0;0;N/A;N/A;N/A;N/A;N/A;N/A;0;0;0;0;0;0;0;(0.0, 0.0);(0.0, 0.0);2;0;0.7071068;0;0.1534349;0;
0.82673;0;0;0;0;0;0;0;0;N/A;N/A;N/A;N/A;N/A;N/A;0;0;0;0;0;0;0;(0.0, 0.0);(0.0, 0.0);2;0;0.7071068;0;0.1534349;0;
0.8336765;0;0;0;0;0;0;0;0;N/A;N/A;N/A;N/A;N/A;N/A;0;0;0;0;0;0;0;(0.0, 0.0);(0.0, 0.0);2;0;0.7071068;0;0.1534349;0;
0.8421286;0;0;0;0;0;0;0;0;N/A;N/A;N/A;N/A;N/A;N/A;0;0;0;0;0;0;0;(0.0, 0.0);(0.0, 0.0);2;0;0.7071068;0;0.1534349;0;
0.8501151;0;0;0;0;0;0;0;0;N/A;N/A;N/A;N/A;N/A;N/A;0;0;0;0;0;0;0;(0.0, 0.0);(0.0, 0.0);2;0;0.7071068;0;0.1534349;0;
0.859121;0;0;0;0;0;0;0;0;N/A;N/A;N/A;N/A;N/A;N/A;0;0;0;0;0;0;0;(0.0, 0.0);(0.0, 0.0);2;0;0.7071068;0;0.1534349;0;
0.8660651;0;0;0;0;0;0;0;0;N/A;N/A;N/A;N/A;N/A;N/A;0;0;0;0;0;0;0;(0.0, 0.0);(0.0, 0.0);2;0;0.7071068;0;0.1534349;0;
0.8734306;0;0;0;0;0;0;0;0;N/A;N/A;N/A;N/A;N/A;N/A;0;0;0;0;0;0;0;(0.0, 0.0);(0.0, 0.0);2;0;0.7071068;0;0.1455718;0;
0.880375;0;0;0;0;0;0;0;0;N/A;N/A;N/A;N/A;N/A;N/A;0;0;0;0;0;0;0;(0.0, 0.0);(0.0, 0.0);2;0;0.7071068;0;0.1455718;0;
0.8873199;0;0;0;0;0;0;0;0;N/A;N/A;N/A;N/A;N/A;N/A;0;0;0;0;0;0;0;(0.0, 0.0);(0.0, 0.0);2;0;0.7071068;0;0.1455718;0;
0.8942642;0;0;0;0;0;0;0;0;N/A;N/A;N/A;N/A;N/A;N/A;0;0;0;0;0;0;0;(0.0, 0.0);(0.0, 0.0);2;0;0.7071068;0;0.1455718;0;
0.9012088;0;0;0;0;0;0;0;0;N/A;N/A;N/A;N/A;N/A;N/A;0;0;0;0;0;0;0;(0.0, 0.0);(0.0, 0.0);2;0;0.7071068;0;0.1455718;0;
0.9083551;0;0;0;0;0;0;0;0;N/A;N/A;N/A;N/A;N/A;N/A;0;0;0;0;0;0;0;(0.0, 0.0);(0.0, 0.0);2;0;0.7071068;0;0.1455718;0;
0.9152997;0;0;0;0;0;0;0;0;N/A;N/A;N/A;N/A;N/A;N/A;0;0;0;0;0;0;0;(0.0, 0.0);(0.0, 0.0);2;0;0.7071068;0;0.1455718;0;
0.9227763;0;0;0;0;0;0;0;0;N/A;N/A;N/A;N/A;N/A;N/A;0;0;0;0;0;0;0;(0.0, 0.0);(0.0, 0.0);2;0;0.7071068;0;0.1455718;0;
0.9297211;0;0;0;0;0;0;0;0;N/A;N/A;N/A;N/A;N/A;N/A;0;0;0;0;0;0;0;(0.0, 0.0);(0.0, 0.0);2;0;0.7071068;0;0.1455718;0;
0.9366652;0;0;0;0;0;0;0;0;N/A;N/A;N/A;N/A;N/A;N/A;0;0;0;0;0;0;0;(0.0, 0.0);(0.0, 0.0);2;0;0.7071068;0;0.1455718;0;
0.9436097;0;0;0;0;0;0;0;0;N/A;N/A;N/A;N/A;N/A;N/A;0;0;0;0;0;0;0;(0.0, 0.0);(0.0, 0.0);2;0;0.7071068;0;0.1455718;0;
0.9523562;0;0;0;0;0;0;0;0;N/A;N/A;N/A;N/A;N/A;N/A;0;0;0;0;0;0;0;(0.0, 0.0);(0.0, 0.0);2;0;0.7071068;0;0.1455718;0;
0.9593011;0;0;0;0;0;0;0;0;N/A;N/A;N/A;N/A;N/A;N/A;0;0;0;0;0;0;0;(0.0, 0.0);(0.0, 0.0);2;0;0.7071068;0;0.1455718;0;
0.9662995;0;0;0;0;0;0;0;0;N/A;N/A;N/A;N/A;N/A;N/A;0;0;0;0;0;0;0;(0.0, 0.0);(0.0, 0.0);2;0;0.7071068;0;0.1455718;0;
0.9733608;0;0;0;0;0;0;0;0;N/A;N/A;N/A;N/A;N/A;N/A;0;0;0;0;0;0;0;(0.0, 0.0);(0.0, 0.0);2;0;0.7071068;0;0.1455718;0;
0.9808936;0;0;0;0;0;0;0;0;N/A;N/A;N/A;N/A;N/A;N/A;0;0;0;0;0;0;0;(0.0, 0.0);(0.0, 0.0);2;0;0.7071068;0;0.1401276;0;
0.9879612;0;0;0;0;0;0;0;0;N/A;N/A;N/A;N/A;N/A;N/A;0;0;0;0;0;0;0;(0.0, 0.0);(0.0, 0.0);2;0;0.7071068;0;0.1401276;0;
0.9949064;0;0;0;0;0;0;0;0;N/A;N/A;N/A;N/A;N/A;N/A;0;0;0;0;0;0;0;(0.0, 0.0);(0.0, 0.0);2;0;0.7071068;0;0.1401276;0;
1.002133;0;0;0;0;0;0;0;0;N/A;N/A;N/A;N/A;N/A;N/A;0;0;0;0;0;0;0;(0.0, 0.0);(0.0, 0.0);2;0;0.7071068;0;0.1401276;0;
1.009383;0;0;0;0;0;0;0;0;N/A;N/A;N/A;N/A;N/A;N/A;0;0;0;0;0;0;0;(0.0, 0.0);(0.0, 0.0);2;0;0.7071068;0;0.1401276;0;
1.016443;0;0;0;0;0;0;0;0;N/A;N/A;N/A;N/A;N/A;N/A;0;0;0;0;0;0;0;(0.0, 0.0);(0.0, 0.0);2;0;0.7071068;0;0.1401276;0;
1.023423;0;0;0;0;0;0;0;0;N/A;N/A;N/A;N/A;N/A;N/A;0;0;0;0;0;0;0;(0.0, 0.0);(0.0, 0.0);2;0;0.7071068;0;0.1401276;0;
1.030366;0;0;0;0;0;0;0;0;N/A;N/A;N/A;N/A;N/A;N/A;0;0;0;0;0;0;0;(0.0, 0.0);(0.0, 0.0);2;0;0.7071068;0;0.1401276;0;
1.037311;0;0;0;0;0;0;0;0;N/A;N/A;N/A;N/A;N/A;N/A;0;0;0;0;0;0;0;(0.0, 0.0);(0.0, 0.0);2;0;0.7071068;0;0.1401276;0;
1.045033;0;0;0;0;0;0;0;0;N/A;N/A;N/A;N/A;N/A;N/A;0;0;0;0;0;0;0;(0.0, 0.0);(0.0, 0.0);2;0;0.7071068;0;0.1401276;0;
1.052172;0;0;0;0;0;0;0;0;N/A;N/A;N/A;N/A;N/A;N/A;0;0;0;0;0;0;0;(0.0, 0.0);(0.0, 0.0);2;0;0.7071068;0;0.1401276;0;
1.060343;0;0;0;0;0;0;0;0;N/A;N/A;N/A;N/A;N/A;N/A;0;0;0;0;0;0;0;(0.0, 0.0);(0.0, 0.0);2;0;0.7071068;0;0.1401276;0;
1.067288;0;0;0;0;0;0;0;0;N/A;N/A;N/A;N/A;N/A;N/A;0;0;0;0;0;0;0;(0.0, 0.0);(0.0, 0.0);2;0;0.7071068;0;0.1401276;0;
1.074232;0;0;0;0;0;0;0;0;N/A;N/A;N/A;N/A;N/A;N/A;0;0;0;0;0;0;0;(0.0, 0.0);(0.0, 0.0);2;0;0.7071068;0;0.1401276;0;
1.081355;0;0;0;0;0;0;0;0;N/A;N/A;N/A;N/A;N/A;N/A;0;0;0;0;0;0;0;(0.0, 0.0);(0.0, 0.0);2;0;0.7071068;0;0.1351694;0;
1.088559;0;0;0;0;0;0;0;0;N/A;N/A;N/A;N/A;N/A;N/A;0;0;0;0;0;0;0;(0.0, 0.0);(0.0, 0.0);2;0;0.7071068;0;0.1351694;0;
1.097245;0;0;0;0;0;0;0;0;N/A;N/A;N/A;N/A;N/A;N/A;0;0;0;0;0;0;0;(0.0, 0.0);(0.0, 0.0);2;0;0.7071068;0;0.1351694;0;
1.10419;0;0;0;0;0;0;0;0;N/A;N/A;N/A;N/A;N/A;N/A;0;0;0;0;0;0;0;(0.0, 0.0);(0.0, 0.0);2;0;0.7071068;0;0.1351694;0;
1.124809;0;0;0;0;0;0;0;0;N/A;N/A;N/A;N/A;N/A;N/A;0;0;0;0;0;0;0;(0.0, 0.0);(0.0, 0.0);2;0;0.7071068;0;0.1351694;0;
1.133013;0;0;0;0;0;0;0;0;N/A;N/A;N/A;N/A;N/A;N/A;0;0;0;0;0;0;0;(0.0, 0.0);(0.0, 0.0);2;0;0.7071068;0;0.1351694;0;
1.139976;0;0;0;0;0;0;0;0;N/A;N/A;N/A;N/A;N/A;N/A;0;0;0;0;0;0;0;(0.0, 0.0);(0.0, 0.0);2;0;0.7071068;0;0.1351694;0;
1.147041;0;0;0;0;0;0;0;0;N/A;N/A;N/A;N/A;N/A;N/A;0;0;0;0;0;0;0;(0.0, 0.0);(0.0, 0.0);2;0;0.7071068;0;0.1351694;0;
1.153985;0;0;0;0;0;0;0;0;N/A;N/A;N/A;N/A;N/A;N/A;0;0;0;0;0;0;0;(0.0, 0.0);(0.0, 0.0);2;0;0.7071068;0;0.1351694;0;
1.161025;0;0;0;0;0;0;0;0;N/A;N/A;N/A;N/A;N/A;N/A;0;0;0;0;0;0;0;(0.0, 0.0);(0.0, 0.0);2;0;0.7071068;0;0.1351694;0;
1.168059;0;0;0;0;0;0;0;0;N/A;N/A;N/A;N/A;N/A;N/A;0;0;0;0;0;0;0;(0.0, 0.0);(0.0, 0.0);2;0;0.7071068;0;0.1351694;0;
1.177369;0;0;0;0;0;0;0;0;N/A;N/A;N/A;N/A;N/A;N/A;0;0;0;0;0;0;0;(0.0, 0.0);(0.0, 0.0);2;0;0.7071068;0;0.1351694;0;
1.184314;0;0;0;0;0;0;0;0;N/A;N/A;N/A;N/A;N/A;N/A;0;0;0;0;0;0;0;(0.0, 0.0);(0.0, 0.0);2;0;0.7071068;0;0.1315904;0;
1.191258;0;0;0;0;0;0;0;0;N/A;N/A;N/A;N/A;N/A;N/A;0;0;0;0;0;0;0;(0.0, 0.0);(0.0, 0.0);2;0;0.7071068;0;0.1315904;0;
1.198588;0;0;0;0;0;0;0;0;N/A;N/A;N/A;N/A;N/A;N/A;0;0;0;0;0;0;0;(0.0, 0.0);(0.0, 0.0);2;0;0.7071068;0;0.1315904;0;
1.205963;0;0;0;0;0;0;0;0;N/A;N/A;N/A;N/A;N/A;N/A;0;0;0;0;0;0;0;(0.0, 0.0);(0.0, 0.0);2;0;0.7071068;0;0.1315904;0;
1.212934;0;0;0;0;0;0;0;0;N/A;N/A;N/A;N/A;N/A;N/A;0;0;0;0;0;0;0;(0.0, 0.0);(0.0, 0.0);2;0;0.7071068;0;0.1315904;0;
1.220282;0;0;0;0;0;0;0;0;N/A;N/A;N/A;N/A;N/A;N/A;0;0;0;0;0;0;0;(0.0, 0.0);(0.0, 0.0);2;0;0.7071068;0;0.1315904;0;
1.227226;0;0;0;0;0;0;0;0;N/A;N/A;N/A;N/A;N/A;N/A;0;0;0;0;0;0;0;(0.0, 0.0);(0.0, 0.0);2;0;0.7071068;0;0.1315904;0;
1.234171;0;0;0;0;0;0;0;0;N/A;N/A;N/A;N/A;N/A;N/A;0;0;0;0;0;0;0;(0.0, 0.0);(0.0, 0.0);2;0;0.7071068;0;0.1315904;0;
1.241192;0;0;0;0;0;0;0;0;N/A;N/A;N/A;N/A;N/A;N/A;0;0;0;0;0;0;0;(0.0, 0.0);(0.0, 0.0);2;0;0.7071068;0;0.1315904;0;
1.248136;0;0;0;0;0;0;0;0;N/A;N/A;N/A;N/A;N/A;N/A;0;0;0;0;0;0;0;(0.0, 0.0);(0.0, 0.0);2;0;0.7071068;0;0.1315904;0;
1.255198;0;0;0;0;0;0;0;0;N/A;N/A;N/A;N/A;N/A;N/A;0;0;0;0;0;0;0;(0.0, 0.0);(0.0, 0.0);2;0;0.7071068;0;0.1315904;0;
1.262188;0;0;0;0;0;0;0;0;N/A;N/A;N/A;N/A;N/A;N/A;0;0;0;0;0;0;0;(0.0, 0.0);(0.0, 0.0);2;0;0.7071068;0;0.1315904;0;
1.269132;0;0;0;0;0;0;0;0;N/A;N/A;N/A;N/A;N/A;N/A;0;0;0;0;0;0;0;(0.0, 0.0);(0.0, 0.0);2;0;0.7071068;0;0.1315904;0;
1.276088;0;0;0;0;0;0;0;0;N/A;N/A;N/A;N/A;N/A;N/A;0;0;0;0;0;0;0;(0.0, 0.0);(0.0, 0.0);2;0;0.7071068;0;0.1315904;0;
1.283744;0;0;0;0;0;0;0;0;N/A;N/A;N/A;N/A;N/A;N/A;0;0;0;0;0;0;0;(0.0, 0.0);(0.0, 0.0);2;0;0.7071068;0;0.1315904;0;
1.290689;0;0;0;0;0;0;0;0;N/A;N/A;N/A;N/A;N/A;N/A;0;0;0;0;0;0;0;(0.0, 0.0);(0.0, 0.0);2;0;0.7071068;0;0.1290689;0;
1.297634;0;0;0;0;0;0;0;0;N/A;N/A;N/A;N/A;N/A;N/A;0;0;0;0;0;0;0;(0.0, 0.0);(0.0, 0.0);2;0;0.7071068;0;0.1290689;0;
1.304578;0;0;0;0;0;0;0;0;N/A;N/A;N/A;N/A;N/A;N/A;0;0;0;0;0;0;0;(0.0, 0.0);(0.0, 0.0);2;0;0.7071068;0;0.1290689;0;
1.311523;0;0;0;0;0;0;0;0;N/A;N/A;N/A;N/A;N/A;N/A;0;0;0;0;0;0;0;(0.0, 0.0);(0.0, 0.0);2;0;0.7071068;0;0.1290689;0;
1.318468;0;0;0;0;0;0;0;0;N/A;N/A;N/A;N/A;N/A;N/A;0;0;0;0;0;0;0;(0.0, 0.0);(0.0, 0.0);2;0;0.7071068;0;0.1290689;0;
1.325412;0;0;0;0;0;0;0;0;N/A;N/A;N/A;N/A;N/A;N/A;0;0;0;0;0;0;0;(0.0, 0.0);(0.0, 0.0);2;0;0.7071068;0;0.1290689;0;
1.332357;0;0;0;0;0;0;0;0;N/A;N/A;N/A;N/A;N/A;N/A;0;0;0;0;0;0;0;(0.0, 0.0);(0.0, 0.0);2;0;0.7071068;0;0.1290689;0;
1.339302;0;0;0;0;0;0;0;0;N/A;N/A;N/A;N/A;N/A;N/A;0;0;0;0;0;0;0;(0.0, 0.0);(0.0, 0.0);2;0;0.7071068;0;0.1290689;0;
1.346246;0;0;0;0;0;0;0;0;N/A;N/A;N/A;N/A;N/A;N/A;0;0;0;0;0;0;0;(0.0, 0.0);(0.0, 0.0);2;0;0.7071068;0;0.1290689;0;
1.353199;0;0;0;0;0;0;0;0;N/A;N/A;N/A;N/A;N/A;N/A;0;0;0;0;0;0;0;(0.0, 0.0);(0.0, 0.0);2;0;0.7071068;0;0.1290689;0;
1.360146;0;0;0;0;0;0;0;0;N/A;N/A;N/A;N/A;N/A;N/A;0;0;0;0;0;0;0;(0.0, 0.0);(0.0, 0.0);2;0;0.7071068;0;0.1290689;0;
1.367169;0;0;0;0;0;0;0;0;N/A;N/A;N/A;N/A;N/A;N/A;0;0;0;0;0;0;0;(0.0, 0.0);(0.0, 0.0);2;0;0.7071068;0;0.1290689;0;
1.374114;0;0;0;0;0;0;0;0;N/A;N/A;N/A;N/A;N/A;N/A;0;0;0;0;0;0;0;(0.0, 0.0);(0.0, 0.0);2;0;0.7071068;0;0.1290689;0;
1.381132;0;0;0;0;0;0;0;0;N/A;N/A;N/A;N/A;N/A;N/A;0;0;0;0;0;0;0;(0.0, 0.0);(0.0, 0.0);2;0;0.7071068;0;0.1290689;0;
1.388079;0;0;0;0;0;0;0;0;N/A;N/A;N/A;N/A;N/A;N/A;0;0;0;0;0;0;0;(0.0, 0.0);(0.0, 0.0);2;0;0.7071068;0;0.1290689;0;
1.395112;0;0;0;0;0;0;0;0;N/A;N/A;N/A;N/A;N/A;N/A;0;0;0;0;0;0;0;(0.0, 0.0);(0.0, 0.0);2;0;0.7071068;0;0.1268283;0;
1.402145;0;0;0;0;0;0;0;0;N/A;N/A;N/A;N/A;N/A;N/A;0;0;0;0;0;0;0;(0.0, 0.0);(0.0, 0.0);2;0;0.7071068;0;0.1268283;0;
1.409092;0;0;0;0;0;0;0;0;N/A;N/A;N/A;N/A;N/A;N/A;0;0;0;0;0;0;0;(0.0, 0.0);(0.0, 0.0);2;0;0.7071068;0;0.1268283;0;
1.416036;0;0;0;0;0;0;0;0;N/A;N/A;N/A;N/A;N/A;N/A;0;0;0;0;0;0;0;(0.0, 0.0);(0.0, 0.0);2;0;0.7071068;0;0.1268283;0;
1.423028;0;0;0;0;0;0;0;0;N/A;N/A;N/A;N/A;N/A;N/A;0;0;0;0;0;0;0;(0.0, 0.0);(0.0, 0.0);2;0;0.7071068;0;0.1268283;0;
1.43031;0;0;0;0;0;0;0;0;N/A;N/A;N/A;N/A;N/A;N/A;0;0;0;0;0;0;0;(0.0, 0.0);(0.0, 0.0);2;0;0.7071068;0;0.1268283;0;
1.437252;0;0;0;0;0;0;0;0;N/A;N/A;N/A;N/A;N/A;N/A;0;0;0;0;0;0;0;(0.0, 0.0);(0.0, 0.0);2;0;0.7071068;0;0.1268283;0;
1.444637;0;0;0;0;0;0;0;0;N/A;N/A;N/A;N/A;N/A;N/A;0;0;0;0;0;0;0;(0.0, 0.0);(0.0, 0.0);2;0;0.7071068;0;0.1268283;0;
1.451583;0;0;0;0;0;0;0;0;N/A;N/A;N/A;N/A;N/A;N/A;0;0;0;0;0;0;0;(0.0, 0.0);(0.0, 0.0);2;0;0.7071068;0;0.1268283;0;
1.458528;0;0;0;0;0;0;0;0;N/A;N/A;N/A;N/A;N/A;N/A;0;0;0;0;0;0;0;(0.0, 0.0);(0.0, 0.0);2;0;0.7071068;0;0.1268283;0;
1.465472;0;0;0;0;0;0;0;0;N/A;N/A;N/A;N/A;N/A;N/A;0;0;0;0;0;0;0;(0.0, 0.0);(0.0, 0.0);2;0;0.7071068;0;0.1268283;0;
1.472417;0;0;0;0;0;0;0;0;N/A;N/A;N/A;N/A;N/A;N/A;0;0;0;0;0;0;0;(0.0, 0.0);(0.0, 0.0);2;0;0.7071068;0;0.1268283;0;
1.479371;0;0;0;0;0;0;0;0;N/A;N/A;N/A;N/A;N/A;N/A;0;0;0;0;0;0;0;(0.0, 0.0);(0.0, 0.0);2;0;0.7071068;0;0.1268283;0;
1.486358;0;0;0;0;0;0;0;0;N/A;N/A;N/A;N/A;N/A;N/A;0;0;0;0;0;0;0;(0.0, 0.0);(0.0, 0.0);2;0;0.7071068;0;0.1268283;0;
1.493433;0;0;0;0;0;0;0;0;N/A;N/A;N/A;N/A;N/A;N/A;0;0;0;0;0;0;0;(0.0, 0.0);(0.0, 0.0);2;0;0.7071068;0;0.1268283;0;
1.500378;0;0;0;0;0;0;0;0;N/A;N/A;N/A;N/A;N/A;N/A;0;0;0;0;0;0;0;(0.0, 0.0);(0.0, 0.0);2;0;0.7071068;0;0.1250315;0;
1.507322;0;0;0;0;0;0;0;0;N/A;N/A;N/A;N/A;N/A;N/A;0;0;0;0;0;0;0;(0.0, 0.0);(0.0, 0.0);2;0;0.7071068;0;0.1250315;0;
1.51427;0;0;0;0;0;0;0;0;N/A;N/A;N/A;N/A;N/A;N/A;0;0;0;0;0;0;0;(0.0, 0.0);(0.0, 0.0);2;0;0.7071068;0;0.1250315;0;
1.521227;0;0;0;0;0;0;0;0;N/A;N/A;N/A;N/A;N/A;N/A;0;0;0;0;0;0;0;(0.0, 0.0);(0.0, 0.0);2;0;0.7071068;0;0.1250315;0;
1.528289;0;0;0;0;0;0;0;0;N/A;N/A;N/A;N/A;N/A;N/A;0;0;0;0;0;0;0;(0.0, 0.0);(0.0, 0.0);2;0;0.7071068;0;0.1250315;0;
1.535282;0;0;0;0;0;0;0;0;N/A;N/A;N/A;N/A;N/A;N/A;0;0;0;0;0;0;0;(0.0, 0.0);(0.0, 0.0);2;0;0.7071068;0;0.1250315;0;
1.542227;0;0;0;0;0;0;0;0;N/A;N/A;N/A;N/A;N/A;N/A;0;0;0;0;0;0;0;(0.0, 0.0);(0.0, 0.0);2;0;0.7071068;0;0.1250315;0;
1.549173;0;0;0;0;0;0;0;0;N/A;N/A;N/A;N/A;N/A;N/A;0;0;0;0;0;0;0;(0.0, 0.0);(0.0, 0.0);2;0;0.7071068;0;0.1250315;0;
1.559065;0;0;0;0;0;0;0;0;N/A;N/A;N/A;N/A;N/A;N/A;0;0;0;0;0;0;0;(0.0, 0.0);(0.0, 0.0);2;0;0.7071068;0;0.1250315;0;
1.566061;0;0;0;0;0;0;0;0;N/A;N/A;N/A;N/A;N/A;N/A;0;0;0;0;0;0;0;(0.0, 0.0);(0.0, 0.0);2;0;0.7071068;0;0.1250315;0;
1.574133;0;0;0;0;0;0;0;0;N/A;N/A;N/A;N/A;N/A;N/A;0;0;0;0;0;0;0;(0.0, 0.0);(0.0, 0.0);2;0;0.7071068;0;0.1250315;0;
1.581078;0;0;0;0;0;0;0;0;N/A;N/A;N/A;N/A;N/A;N/A;0;0;0;0;0;0;0;(0.0, 0.0);(0.0, 0.0);2;0;0.7071068;0;0.1250315;0;
1.588023;0;0;0;0;0;0;0;0;N/A;N/A;N/A;N/A;N/A;N/A;0;0;0;0;0;0;0;(0.0, 0.0);(0.0, 0.0);2;0;0.7071068;0;0.1250315;0;
1.596177;0;0;0;0;0;0;0;0;N/A;N/A;N/A;N/A;N/A;N/A;0;0;0;0;0;0;0;(0.0, 0.0);(0.0, 0.0);2;0;0.7071068;0;0.1250315;0;
1.603776;0;0;0;0;0;0;0;0;N/A;N/A;N/A;N/A;N/A;N/A;0;0;0;0;0;0;0;(0.0, 0.0);(0.0, 0.0);2;0;0.7071068;0;0.1233674;0;
1.610727;0;0;0;0;0;0;0;0;N/A;N/A;N/A;N/A;N/A;N/A;0;0;0;0;0;0;0;(0.0, 0.0);(0.0, 0.0);2;0;0.7071068;0;0.1233674;0;
1.617679;0;0;0;0;0;0;0;0;N/A;N/A;N/A;N/A;N/A;N/A;0;0;0;0;0;0;0;(0.0, 0.0);(0.0, 0.0);2;0;0.7071068;0;0.1233674;0;
1.624648;0;0;0;0;0;0;0;0;N/A;N/A;N/A;N/A;N/A;N/A;0;0;0;0;0;0;0;(0.0, 0.0);(0.0, 0.0);2;0;0.7071068;0;0.1233674;0;
1.631831;0;0;0;0;0;0;0;0;N/A;N/A;N/A;N/A;N/A;N/A;0;0;0;0;0;0;0;(0.0, 0.0);(0.0, 0.0);2;0;0.7071068;0;0.1233674;0;
1.638809;0;0;0;0;0;0;0;0;N/A;N/A;N/A;N/A;N/A;N/A;0;0;0;0;0;0;0;(0.0, 0.0);(0.0, 0.0);2;0;0.7071068;0;0.1233674;0;
1.645941;0;0;0;0;0;0;0;0;N/A;N/A;N/A;N/A;N/A;N/A;0;0;0;0;0;0;0;(0.0, 0.0);(0.0, 0.0);2;0;0.7071068;0;0.1233674;0;
1.653128;0;0;0;0;0;0;0;0;N/A;N/A;N/A;N/A;N/A;N/A;0;0;0;0;0;0;0;(0.0, 0.0);(0.0, 0.0);2;0;0.7071068;0;0.1233674;0;
1.66008;0;0;0;0;0;0;0;0;N/A;N/A;N/A;N/A;N/A;N/A;0;0;0;0;0;0;0;(0.0, 0.0);(0.0, 0.0);2;0;0.7071068;0;0.1233674;0;
1.667018;0;0;0;0;0;0;0;0;N/A;N/A;N/A;N/A;N/A;N/A;0;0;0;0;0;0;0;(0.0, 0.0);(0.0, 0.0);2;0;0.7071068;0;0.1233674;0;
1.674014;0;0;0;0;0;0;0;0;N/A;N/A;N/A;N/A;N/A;N/A;0;0;0;0;0;0;0;(0.0, 0.0);(0.0, 0.0);2;0;0.7071068;0;0.1233674;0;
1.680959;0;0;0;0;0;0;0;0;N/A;N/A;N/A;N/A;N/A;N/A;0;0;0;0;0;0;0;(0.0, 0.0);(0.0, 0.0);2;0;0.7071068;0;0.1233674;0;
1.687903;0;0;0;0;0;0;0;0;N/A;N/A;N/A;N/A;N/A;N/A;0;0;0;0;0;0;0;(0.0, 0.0);(0.0, 0.0);2;0;0.7071068;0;0.1233674;0;
1.694847;0;0;0;0;0;0;0;0;N/A;N/A;N/A;N/A;N/A;N/A;0;0;0;0;0;0;0;(0.0, 0.0);(0.0, 0.0);2;0;0.7071068;0;0.1233674;0;
1.701792;0;0;0;0;0;0;0;0;N/A;N/A;N/A;N/A;N/A;N/A;0;0;0;0;0;0;0;(0.0, 0.0);(0.0, 0.0);2;0;0.7071068;0;0.1233674;0;
1.708738;0;0;0;0;0;0;0;0;N/A;N/A;N/A;N/A;N/A;N/A;0;0;0;0;0;0;0;(0.0, 0.0);(0.0, 0.0);2;0;0.7071068;0;0.1220527;0;
1.715682;0;0;0;0;0;0;0;0;N/A;N/A;N/A;N/A;N/A;N/A;0;0;0;0;0;0;0;(0.0, 0.0);(0.0, 0.0);2;0;0.7071068;0;0.1220527;0;
1.722626;0;0;0;0;0;0;0;0;N/A;N/A;N/A;N/A;N/A;N/A;0;0;0;0;0;0;0;(0.0, 0.0);(0.0, 0.0);2;0;0.7071068;0;0.1220527;0;
1.729571;0;0;0;0;0;0;0;0;N/A;N/A;N/A;N/A;N/A;N/A;0;0;0;0;0;0;0;(0.0, 0.0);(0.0, 0.0);2;0;0.7071068;0;0.1220527;0;
1.736516;0;0;0;0;0;0;0;0;N/A;N/A;N/A;N/A;N/A;N/A;0;0;0;0;0;0;0;(0.0, 0.0);(0.0, 0.0);2;0;0.7071068;0;0.1220527;0;
1.74346;0;0;0;0;0;0;0;0;N/A;N/A;N/A;N/A;N/A;N/A;0;0;0;0;0;0;0;(0.0, 0.0);(0.0, 0.0);2;0;0.7071068;0;0.1220527;0;
1.750409;0;0;0;0;0;0;0;0;N/A;N/A;N/A;N/A;N/A;N/A;0;0;0;0;0;0;0;(0.0, 0.0);(0.0, 0.0);2;0;0.7071068;0;0.1220527;0;
1.757351;0;0;0;0;0;0;0;0;N/A;N/A;N/A;N/A;N/A;N/A;0;0;0;0;0;0;0;(0.0, 0.0);(0.0, 0.0);2;0;0.7071068;0;0.1220527;0;
1.764329;0;0;0;0;0;0;0;0;N/A;N/A;N/A;N/A;N/A;N/A;0;0;0;0;0;0;0;(0.0, 0.0);(0.0, 0.0);2;0;0.7071068;0;0.1220527;0;
1.771372;0;0;0;0;0;0;0;0;N/A;N/A;N/A;N/A;N/A;N/A;0;0;0;0;0;0;0;(0.0, 0.0);(0.0, 0.0);2;0;0.7071068;0;0.1220527;0;
1.778317;0;0;0;0;0;0;0;0;N/A;N/A;N/A;N/A;N/A;N/A;0;0;0;0;0;0;0;(0.0, 0.0);(0.0, 0.0);2;0;0.7071068;0;0.1220527;0;
1.785304;0;0;0;0;0;0;0;0;N/A;N/A;N/A;N/A;N/A;N/A;0;0;0;0;0;0;0;(0.0, 0.0);(0.0, 0.0);2;0;0.7071068;0;0.1220527;0;
1.792321;0;0;0;0;0;0;0;0;N/A;N/A;N/A;N/A;N/A;N/A;0;0;0;0;0;0;0;(0.0, 0.0);(0.0, 0.0);2;0;0.7071068;0;0.1220527;0;
1.79932;0;0;0;0;0;0;0;0;N/A;N/A;N/A;N/A;N/A;N/A;0;0;0;0;0;0;0;(0.0, 0.0);(0.0, 0.0);2;0;0.7071068;0;0.1220527;0;
1.806309;0;0;0;0;0;0;0;0;N/A;N/A;N/A;N/A;N/A;N/A;0;0;0;0;0;0;0;(0.0, 0.0);(0.0, 0.0);2;0;0.7071068;0;0.1220527;0;
1.813253;0;0;0;0;0;0;0;0;N/A;N/A;N/A;N/A;N/A;N/A;0;0;0;0;0;0;0;(0.0, 0.0);(0.0, 0.0);2;0;0.7071068;0;0.1208835;0;
1.820304;0;0;0;0;0;0;0;0;N/A;N/A;N/A;N/A;N/A;N/A;0;0;0;0;0;0;0;(0.0, 0.0);(0.0, 0.0);2;0;0.7071068;0;0.1208835;0;
1.827566;0;0;0;0;0;0;0;0;N/A;N/A;N/A;N/A;N/A;N/A;0;0;0;0;0;0;0;(0.0, 0.0);(0.0, 0.0);2;0;0.7071068;0;0.1208835;0;
1.834509;0;0;0;0;0;0;0;0;N/A;N/A;N/A;N/A;N/A;N/A;0;0;0;0;0;0;0;(0.0, 0.0);(0.0, 0.0);2;0;0.7071068;0;0.1208835;0;
1.84146;0;0;0;0;0;0;0;0;N/A;N/A;N/A;N/A;N/A;N/A;0;0;0;0;0;0;0;(0.0, 0.0);(0.0, 0.0);2;0;0.7071068;0;0.1208835;0;
1.848408;0;0;0;0;0;0;0;0;N/A;N/A;N/A;N/A;N/A;N/A;0;0;0;0;0;0;0;(0.0, 0.0);(0.0, 0.0);2;0;0.7071068;0;0.1208835;0;
1.855363;0;0;0;0;0;0;0;0;N/A;N/A;N/A;N/A;N/A;N/A;0;0;0;0;0;0;0;(0.0, 0.0);(0.0, 0.0);2;0;0.7071068;0;0.1208835;0;
1.862459;0;0;0;0;0;0;0;0;N/A;N/A;N/A;N/A;N/A;N/A;0;0;0;0;0;0;0;(0.0, 0.0);(0.0, 0.0);2;0;0.7071068;0;0.1208835;0;
1.869401;0;0;0;0;0;0;0;0;N/A;N/A;N/A;N/A;N/A;N/A;0;0;0;0;0;0;0;(0.0, 0.0);(0.0, 0.0);2;0;0.7071068;0;0.1208835;0;
1.876346;0;0;0;0;0;0;0;0;N/A;N/A;N/A;N/A;N/A;N/A;0;0;0;0;0;0;0;(0.0, 0.0);(0.0, 0.0);2;0;0.7071068;0;0.1208835;0;
1.884528;0;0;0;0;0;0;0;0;N/A;N/A;N/A;N/A;N/A;N/A;0;0;0;0;0;0;0;(0.0, 0.0);(0.0, 0.0);2;0;0.7071068;0;0.1208835;0;
1.891473;0;0;0;0;0;0;0;0;N/A;N/A;N/A;N/A;N/A;N/A;0;0;0;0;0;0;0;(0.0, 0.0);(0.0, 0.0);2;0;0.7071068;0;0.1208835;0;
1.89842;0;0;0;0;0;0;0;0;N/A;N/A;N/A;N/A;N/A;N/A;0;0;0;0;0;0;0;(0.0, 0.0);(0.0, 0.0);2;0;0.7071068;0;0.1208835;0;
1.905635;0;0;0;0;0;0;0;0;N/A;N/A;N/A;N/A;N/A;N/A;0;0;0;0;0;0;0;(0.0, 0.0);(0.0, 0.0);2;0;0.7071068;0;0.1208835;0;
1.912964;0;0;0;0;0;0;0;0;N/A;N/A;N/A;N/A;N/A;N/A;0;0;0;0;0;0;0;(0.0, 0.0);(0.0, 0.0);2;0;0.7071068;0;0.1208835;0;
1.919909;0;0;0;0;0;0;0;0;N/A;N/A;N/A;N/A;N/A;N/A;0;0;0;0;0;0;0;(0.0, 0.0);(0.0, 0.0);2;0;0.7071068;0;0.1199943;0;
1.926853;0;0;0;0;0;0;0;0;N/A;N/A;N/A;N/A;N/A;N/A;0;0;0;0;0;0;0;(0.0, 0.0);(0.0, 0.0);2;0;0.7071068;0;0.1199943;0;
1.933964;0;0;0;0;0;0;0;0;N/A;N/A;N/A;N/A;N/A;N/A;0;0;0;0;0;0;0;(0.0, 0.0);(0.0, 0.0);2;0;0.7071068;0;0.1199943;0;
1.940937;0;0;0;0;0;0;0;0;N/A;N/A;N/A;N/A;N/A;N/A;0;0;0;0;0;0;0;(0.0, 0.0);(0.0, 0.0);2;0;0.7071068;0;0.1199943;0;
1.947924;0;0;0;0;0;0;0;0;N/A;N/A;N/A;N/A;N/A;N/A;0;0;0;0;0;0;0;(0.0, 0.0);(0.0, 0.0);2;0;0.7071068;0;0.1199943;0;
1.954869;0;0;0;0;0;0;0;0;N/A;N/A;N/A;N/A;N/A;N/A;0;0;0;0;0;0;0;(0.0, 0.0);(0.0, 0.0);2;0;0.7071068;0;0.1199943;0;
1.961915;0;0;0;0;0;0;0;0;N/A;N/A;N/A;N/A;N/A;N/A;0;0;0;0;0;0;0;(0.0, 0.0);(0.0, 0.0);2;0;0.7071068;0;0.1199943;0;
1.968842;0;0;0;0;0;0;0;0;N/A;N/A;N/A;N/A;N/A;N/A;0;0;0;0;0;0;0;(0.0, 0.0);(0.0, 0.0);2;0;0.7071068;0;0.1199943;0;
1.975787;0;0;0;0;0;0;0;0;N/A;N/A;N/A;N/A;N/A;N/A;0;0;0;0;0;0;0;(0.0, 0.0);(0.0, 0.0);2;0;0.7071068;0;0.1199943;0;
1.983034;0;0;0;0;0;0;0;0;N/A;N/A;N/A;N/A;N/A;N/A;0;0;0;0;0;0;0;(0.0, 0.0);(0.0, 0.0);2;0;0.7071068;0;0.1199943;0;
1.990826;0;0;0;0;0;0;0;0;N/A;N/A;N/A;N/A;N/A;N/A;0;0;0;0;0;0;0;(0.0, 0.0);(0.0, 0.0);2;0;0.7071068;0;0.1199943;0;
1.997771;0;0;0;0;0;0;0;0;N/A;N/A;N/A;N/A;N/A;N/A;0;0;0;0;0;0;0;(0.0, 0.0);(0.0, 0.0);2;0;0.7071068;0;0.1199943;0;
2.004716;0;0;0;0;0;0;0;0;N/A;N/A;N/A;N/A;N/A;N/A;0;0;0;0;0;0;0;(0.0, 0.0);(0.0, 0.0);2;0;0.7071068;0;0.1199943;0;
2.011658;0;0;0;0;0;0;0;0;N/A;N/A;N/A;N/A;N/A;N/A;0;0;0;0;0;0;0;(0.0, 0.0);(0.0, 0.0);2;0;0.7071068;0;0.1199943;0;
2.018657;0;0;0;0;0;0;0;0;N/A;N/A;N/A;N/A;N/A;N/A;0;0;0;0;0;0;0;(0.0, 0.0);(0.0, 0.0);2;0;0.7071068;0;0.1199943;0;
2.025752;0;0;0;0;0;0;0;0;N/A;N/A;N/A;N/A;N/A;N/A;0;0;0;0;0;0;0;(0.0, 0.0);(0.0, 0.0);2;0;0.7071068;0;0.1191619;0;
2.032691;0;0;0;0;0;0;0;0;N/A;N/A;N/A;N/A;N/A;N/A;0;0;0;0;0;0;0;(0.0, 0.0);(0.0, 0.0);2;0;0.7071068;0;0.1191619;0;
2.039706;0;0;0;0;0;0;0;0;N/A;N/A;N/A;N/A;N/A;N/A;0;0;0;0;0;0;0;(0.0, 0.0);(0.0, 0.0);2;0;0.7071068;0;0.1191619;0;
2.04665;0;0;0;0;0;0;0;0;N/A;N/A;N/A;N/A;N/A;N/A;0;0;0;0;0;0;0;(0.0, 0.0);(0.0, 0.0);2;0;0.7071068;0;0.1191619;0;
2.053596;0;0;0;0;0;0;0;0;N/A;N/A;N/A;N/A;N/A;N/A;0;0;0;0;0;0;0;(0.0, 0.0);(0.0, 0.0);2;0;0.7071068;0;0.1191619;0;
2.06054;0;0;0;0;0;0;0;0;N/A;N/A;N/A;N/A;N/A;N/A;0;0;0;0;0;0;0;(0.0, 0.0);(0.0, 0.0);2;0;0.7071068;0;0.1191619;0;
2.067495;0;0;0;0;0;0;0;0;N/A;N/A;N/A;N/A;N/A;N/A;0;0;0;0;0;0;0;(0.0, 0.0);(0.0, 0.0);2;0;0.7071068;0;0.1191619;0;
2.074647;0;0;0;0;0;0;0;0;N/A;N/A;N/A;N/A;N/A;N/A;0;0;0;0;0;0;0;(0.0, 0.0);(0.0, 0.0);2;0;0.7071068;0;0.1191619;0;
2.081589;0;0;0;0;0;0;0;0;N/A;N/A;N/A;N/A;N/A;N/A;0;0;0;0;0;0;0;(0.0, 0.0);(0.0, 0.0);2;0;0.7071068;0;0.1191619;0;
2.088531;0;0;0;0;0;0;0;0;N/A;N/A;N/A;N/A;N/A;N/A;0;0;0;0;0;0;0;(0.0, 0.0);(0.0, 0.0);2;0;0.7071068;0;0.1191619;0;
2.095768;0;0;0;0;0;0;0;0;N/A;N/A;N/A;N/A;N/A;N/A;0;0;0;0;0;0;0;(0.0, 0.0);(0.0, 0.0);2;0;0.7071068;0;0.1191619;0;
2.102784;0;0;0;0;0;0;0;0;N/A;N/A;N/A;N/A;N/A;N/A;0;0;0;0;0;0;0;(0.0, 0.0);(0.0, 0.0);2;0;0.7071068;0;0.1191619;0;
2.109655;0;0;0;0;0;0;0;0;N/A;N/A;N/A;N/A;N/A;N/A;0;0;0;0;0;0;0;(0.0, 0.0);(0.0, 0.0);2;0;0.7071068;0;0.1191619;0;
2.116804;0;0;0;0;0;0;0;0;N/A;N/A;N/A;N/A;N/A;N/A;0;0;0;0;0;0;0;(0.0, 0.0);(0.0, 0.0);2;0;0.7071068;0;0.1191619;0;
2.123748;0;0;0;0;0;0;0;0;N/A;N/A;N/A;N/A;N/A;N/A;0;0;0;0;0;0;0;(0.0, 0.0);(0.0, 0.0);2;0;0.7071068;0;0.1191619;0;
2.130693;0;0;0;0;0;0;0;0;N/A;N/A;N/A;N/A;N/A;N/A;0;0;0;0;0;0;0;(0.0, 0.0);(0.0, 0.0);2;0;0.7071068;0;0.1183719;0;
2.137871;0;0;0;0;0;0;0;0;N/A;N/A;N/A;N/A;N/A;N/A;0;0;0;0;0;0;0;(0.0, 0.0);(0.0, 0.0);2;0;0.7071068;0;0.1183719;0;
2.145525;0;0;0;0;0;0;0;0;N/A;N/A;N/A;N/A;N/A;N/A;0;0;0;0;0;0;0;(0.0, 0.0);(0.0, 0.0);2;0;0.7071068;0;0.1183719;0;
2.152492;0;0;0;0;0;0;0;0;N/A;N/A;N/A;N/A;N/A;N/A;0;0;0;0;0;0;0;(0.0, 0.0);(0.0, 0.0);2;0;0.7071068;0;0.1183719;0;
2.159619;0;0;0;0;0;0;0;0;N/A;N/A;N/A;N/A;N/A;N/A;0;0;0;0;0;0;0;(0.0, 0.0);(0.0, 0.0);2;0;0.7071068;0;0.1183719;0;
2.166831;0;0;0;0;0;0;0;0;N/A;N/A;N/A;N/A;N/A;N/A;0;0;0;0;0;0;0;(0.0, 0.0);(0.0, 0.0);2;0;0.7071068;0;0.1183719;0;
2.173776;0;0;0;0;0;0;0;0;N/A;N/A;N/A;N/A;N/A;N/A;0;0;0;0;0;0;0;(0.0, 0.0);(0.0, 0.0);2;0;0.7071068;0;0.1183719;0;
2.180721;0;0;0;0;0;0;0;0;N/A;N/A;N/A;N/A;N/A;N/A;0;0;0;0;0;0;0;(0.0, 0.0);(0.0, 0.0);2;0;0.7071068;0;0.1183719;0;
2.188558;0;0;0;0;0;0;0;0;N/A;N/A;N/A;N/A;N/A;N/A;0;0;0;0;0;0;0;(0.0, 0.0);(0.0, 0.0);2;0;0.7071068;0;0.1183719;0;
2.195533;0;0;0;0;0;0;0;0;N/A;N/A;N/A;N/A;N/A;N/A;0;0;0;0;0;0;0;(0.0, 0.0);(0.0, 0.0);2;0;0.7071068;0;0.1183719;0;
2.202481;0;0;0;0;0;0;0;0;N/A;N/A;N/A;N/A;N/A;N/A;0;0;0;0;0;0;0;(0.0, 0.0);(0.0, 0.0);2;0;0.7071068;0;0.1183719;0;
2.209471;0;0;0;0;0;0;0;0;N/A;N/A;N/A;N/A;N/A;N/A;0;0;0;0;0;0;0;(0.0, 0.0);(0.0, 0.0);2;0;0.7071068;0;0.1183719;0;
2.216415;0;0;0;0;0;0;0;0;N/A;N/A;N/A;N/A;N/A;N/A;0;0;0;0;0;0;0;(0.0, 0.0);(0.0, 0.0);2;0;0.7071068;0;0.1183719;0;
2.22336;0;0;0;0;0;0;0;0;N/A;N/A;N/A;N/A;N/A;N/A;0;0;0;0;0;0;0;(0.0, 0.0);(0.0, 0.0);2;0;0.7071068;0;0.1183719;0;
2.231084;0;0;0;0;0;0;0;0;N/A;N/A;N/A;N/A;N/A;N/A;0;0;0;0;0;0;0;(0.0, 0.0);(0.0, 0.0);2;0;0.7071068;0;0.1174255;0;
2.238035;0;0;0;0;0;0;0;0;N/A;N/A;N/A;N/A;N/A;N/A;0;0;0;0;0;0;0;(0.0, 0.0);(0.0, 0.0);2;0;0.7071068;0;0.1174255;0;
2.244982;0;0;0;0;0;0;0;0;N/A;N/A;N/A;N/A;N/A;N/A;0;0;0;0;0;0;0;(0.0, 0.0);(0.0, 0.0);2;0;0.7071068;0;0.1174255;0;
2.251977;0;0;0;0;0;0;0;0;N/A;N/A;N/A;N/A;N/A;N/A;0;0;0;0;0;0;0;(0.0, 0.0);(0.0, 0.0);2;0;0.7071068;0;0.1174255;0;
2.258918;0;0;0;0;0;0;0;0;N/A;N/A;N/A;N/A;N/A;N/A;0;0;0;0;0;0;0;(0.0, 0.0);(0.0, 0.0);2;0;0.7071068;0;0.1174255;0;
2.265861;0;0;0;0;0;0;0;0;N/A;N/A;N/A;N/A;N/A;N/A;0;0;0;0;0;0;0;(0.0, 0.0);(0.0, 0.0);2;0;0.7071068;0;0.1174255;0;
2.272806;0;0;0;0;0;0;0;0;N/A;N/A;N/A;N/A;N/A;N/A;0;0;0;0;0;0;0;(0.0, 0.0);(0.0, 0.0);2;0;0.7071068;0;0.1174255;0;
2.279752;0;0;0;0;0;0;0;0;N/A;N/A;N/A;N/A;N/A;N/A;0;0;0;0;0;0;0;(0.0, 0.0);(0.0, 0.0);2;0;0.7071068;0;0.1174255;0;
2.28749;0;0;0;0;0;0;0;0;N/A;N/A;N/A;N/A;N/A;N/A;0;0;0;0;0;0;0;(0.0, 0.0);(0.0, 0.0);2;0;0.7071068;0;0.1174255;0;
2.294435;0;0;0;0;0;0;0;0;N/A;N/A;N/A;N/A;N/A;N/A;0;0;0;0;0;0;0;(0.0, 0.0);(0.0, 0.0);2;0;0.7071068;0;0.1174255;0;
2.302329;0;0;0;0;0;0;0;0;N/A;N/A;N/A;N/A;N/A;N/A;0;0;0;0;0;0;0;(0.0, 0.0);(0.0, 0.0);2;0;0.7071068;0;0.1174255;0;
2.310321;0;0;0;0;0;0;0;0;N/A;N/A;N/A;N/A;N/A;N/A;0;0;0;0;0;0;0;(0.0, 0.0);(0.0, 0.0);2;0;0.7071068;0;0.1174255;0;
2.317261;0;0;0;0;0;0;0;0;N/A;N/A;N/A;N/A;N/A;N/A;0;0;0;0;0;0;0;(0.0, 0.0);(0.0, 0.0);2;0;0.7071068;0;0.1174255;0;
2.324272;0;0;0;0;0;0;0;0;N/A;N/A;N/A;N/A;N/A;N/A;0;0;0;0;0;0;0;(0.0, 0.0);(0.0, 0.0);2;0;0.7071068;0;0.1174255;0;
2.33122;0;0;0;0;0;0;0;0;N/A;N/A;N/A;N/A;N/A;N/A;0;0;0;0;0;0;0;(0.0, 0.0);(0.0, 0.0);2;0;0.7071068;0;0.116561;0;
2.338162;0;0;0;0;0;0;0;0;N/A;N/A;N/A;N/A;N/A;N/A;0;0;0;0;0;0;0;(0.0, 0.0);(0.0, 0.0);2;0;0.7071068;0;0.116561;0;
2.345107;0;0;0;0;0;0;0;0;N/A;N/A;N/A;N/A;N/A;N/A;0;0;0;0;0;0;0;(0.0, 0.0);(0.0, 0.0);2;0;0.7071068;0;0.116561;0;
2.352094;0;0;0;0;0;0;0;0;N/A;N/A;N/A;N/A;N/A;N/A;0;0;0;0;0;0;0;(0.0, 0.0);(0.0, 0.0);2;0;0.7071068;0;0.116561;0;
2.359066;0;0;0;0;0;0;0;0;N/A;N/A;N/A;N/A;N/A;N/A;0;0;0;0;0;0;0;(0.0, 0.0);(0.0, 0.0);2;0;0.7071068;0;0.116561;0;
2.366107;0;0;0;0;0;0;0;0;N/A;N/A;N/A;N/A;N/A;N/A;0;0;0;0;0;0;0;(0.0, 0.0);(0.0, 0.0);2;0;0.7071068;0;0.116561;0;
2.373109;0;0;0;0;0;0;0;0;N/A;N/A;N/A;N/A;N/A;N/A;0;0;0;0;0;0;0;(0.0, 0.0);(0.0, 0.0);2;0;0.7071068;0;0.116561;0;
2.380121;0;0;0;0;0;0;0;0;N/A;N/A;N/A;N/A;N/A;N/A;0;0;0;0;0;0;0;(0.0, 0.0);(0.0, 0.0);2;0;0.7071068;0;0.116561;0;
2.387124;0;0;0;0;0;0;0;0;N/A;N/A;N/A;N/A;N/A;N/A;0;0;0;0;0;0;0;(0.0, 0.0);(0.0, 0.0);2;0;0.7071068;0;0.116561;0;
2.394071;0;0;0;0;0;0;0;0;N/A;N/A;N/A;N/A;N/A;N/A;0;0;0;0;0;0;0;(0.0, 0.0);(0.0, 0.0);2;0;0.7071068;0;0.116561;0;
2.401022;0;0;0;0;0;0;0;0;N/A;N/A;N/A;N/A;N/A;N/A;0;0;0;0;0;0;0;(0.0, 0.0);(0.0, 0.0);2;0;0.7071068;0;0.116561;0;
2.408723;0;0;0;0;0;0;0;0;N/A;N/A;N/A;N/A;N/A;N/A;0;0;0;0;0;0;0;(0.0, 0.0);(0.0, 0.0);2;0;0.7071068;0;0.116561;0;
2.415668;0;0;0;0;0;0;0;0;N/A;N/A;N/A;N/A;N/A;N/A;0;0;0;0;0;0;0;(0.0, 0.0);(0.0, 0.0);2;0;0.7071068;0;0.116561;0;
2.422613;0;0;0;0;0;0;0;0;N/A;N/A;N/A;N/A;N/A;N/A;0;0;0;0;0;0;0;(0.0, 0.0);(0.0, 0.0);2;0;0.7071068;0;0.116561;0;
2.429633;0;0;0;0;0;0;0;0;N/A;N/A;N/A;N/A;N/A;N/A;0;0;0;0;0;0;0;(0.0, 0.0);(0.0, 0.0);2;0;0.7071068;0;0.116561;0;
2.436599;0;0;0;0;0;0;0;0;N/A;N/A;N/A;N/A;N/A;N/A;0;0;0;0;0;0;0;(0.0, 0.0);(0.0, 0.0);2;0;0.7071068;0;0.1160285;0;
2.443598;0;0;0;0;0;0;0;0;N/A;N/A;N/A;N/A;N/A;N/A;0;0;0;0;0;0;0;(0.0, 0.0);(0.0, 0.0);2;0;0.7071068;0;0.1160285;0;
2.450557;0;0;0;0;0;0;0;0;N/A;N/A;N/A;N/A;N/A;N/A;0;0;0;0;0;0;0;(0.0, 0.0);(0.0, 0.0);2;0;0.7071068;0;0.1160285;0;
2.457597;0;0;0;0;0;0;0;0;N/A;N/A;N/A;N/A;N/A;N/A;0;0;0;0;0;0;0;(0.0, 0.0);(0.0, 0.0);2;0;0.7071068;0;0.1160285;0;
2.464643;0;0;0;0;0;0;0;0;N/A;N/A;N/A;N/A;N/A;N/A;0;0;0;0;0;0;0;(0.0, 0.0);(0.0, 0.0);2;0;0.7071068;0;0.1160285;0;
2.471601;0;0;0;0;0;0;0;0;N/A;N/A;N/A;N/A;N/A;N/A;0;0;0;0;0;0;0;(0.0, 0.0);(0.0, 0.0);2;0;0.7071068;0;0.1160285;0;
2.478555;0;0;0;0;0;0;0;0;N/A;N/A;N/A;N/A;N/A;N/A;0;0;0;0;0;0;0;(0.0, 0.0);(0.0, 0.0);2;0;0.7071068;0;0.1160285;0;
2.485497;0;0;0;0;0;0;0;0;N/A;N/A;N/A;N/A;N/A;N/A;0;0;0;0;0;0;0;(0.0, 0.0);(0.0, 0.0);2;0;0.7071068;0;0.1160285;0;
2.492539;0;0;0;0;0;0;0;0;N/A;N/A;N/A;N/A;N/A;N/A;0;0;0;0;0;0;0;(0.0, 0.0);(0.0, 0.0);2;0;0.7071068;0;0.1160285;0;
2.499703;0;0;0;0;0;0;0;0;N/A;N/A;N/A;N/A;N/A;N/A;0;0;0;0;0;0;0;(0.0, 0.0);(0.0, 0.0);2;0;0.7071068;0;0.1160285;0;
2.506647;0;0;0;0;0;0;0;0;N/A;N/A;N/A;N/A;N/A;N/A;0;0;0;0;0;0;0;(0.0, 0.0);(0.0, 0.0);2;0;0.7071068;0;0.1160285;0;
2.513596;0;0;0;0;0;0;0;0;N/A;N/A;N/A;N/A;N/A;N/A;0;0;0;0;0;0;0;(0.0, 0.0);(0.0, 0.0);2;0;0.7071068;0;0.1160285;0;
2.520557;0;0;0;0;0;0;0;0;N/A;N/A;N/A;N/A;N/A;N/A;0;0;0;0;0;0;0;(0.0, 0.0);(0.0, 0.0);2;0;0.7071068;0;0.1160285;0;
2.527526;0;0;0;0;0;0;0;0;N/A;N/A;N/A;N/A;N/A;N/A;0;0;0;0;0;0;0;(0.0, 0.0);(0.0, 0.0);2;0;0.7071068;0;0.1160285;0;
2.534603;0;0;0;0;0;0;0;0;N/A;N/A;N/A;N/A;N/A;N/A;0;0;0;0;0;0;0;(0.0, 0.0);(0.0, 0.0);2;0;0.7071068;0;0.1160285;0;
2.541553;0;0;0;0;0;0;0;0;N/A;N/A;N/A;N/A;N/A;N/A;0;0;0;0;0;0;0;(0.0, 0.0);(0.0, 0.0);2;0;0.7071068;0;0.1155251;0;
2.548493;0;0;0;0;0;0;0;0;N/A;N/A;N/A;N/A;N/A;N/A;0;0;0;0;0;0;0;(0.0, 0.0);(0.0, 0.0);2;0;0.7071068;0;0.1155251;0;
2.555444;0;0;0;0;0;0;0;0;N/A;N/A;N/A;N/A;N/A;N/A;0;0;0;0;0;0;0;(0.0, 0.0);(0.0, 0.0);2;0;0.7071068;0;0.1155251;0;
2.562385;0;0;0;0;0;0;0;0;N/A;N/A;N/A;N/A;N/A;N/A;0;0;0;0;0;0;0;(0.0, 0.0);(0.0, 0.0);2;0;0.7071068;0;0.1155251;0;
2.56933;0;0;0;0;0;0;0;0;N/A;N/A;N/A;N/A;N/A;N/A;0;0;0;0;0;0;0;(0.0, 0.0);(0.0, 0.0);2;0;0.7071068;0;0.1155251;0;
2.576466;0;0;0;0;0;0;0;0;N/A;N/A;N/A;N/A;N/A;N/A;0;0;0;0;0;0;0;(0.0, 0.0);(0.0, 0.0);2;0;0.7071068;0;0.1155251;0;
2.583421;0;0;0;0;0;0;0;0;N/A;N/A;N/A;N/A;N/A;N/A;0;0;0;0;0;0;0;(0.0, 0.0);(0.0, 0.0);2;0;0.7071068;0;0.1155251;0;
2.593546;0;0;0;0;0;0;0;0;N/A;N/A;N/A;N/A;N/A;N/A;0;0;0;0;0;0;0;(0.0, 0.0);(0.0, 0.0);2;0;0.7071068;0;0.1155251;0;
2.601919;0;0;0;0;0;0;0;0;N/A;N/A;N/A;N/A;N/A;N/A;0;0;0;0;0;0;0;(0.0, 0.0);(0.0, 0.0);2;0;0.7071068;0;0.1155251;0;
2.609109;0;0;0;0;0;0;0;0;N/A;N/A;N/A;N/A;N/A;N/A;0;0;0;0;0;0;0;(0.0, 0.0);(0.0, 0.0);2;0;0.7071068;0;0.1155251;0;
2.616404;0;0;0;0;0;0;0;0;N/A;N/A;N/A;N/A;N/A;N/A;0;0;0;0;0;0;0;(0.0, 0.0);(0.0, 0.0);2;0;0.7071068;0;0.1155251;0;
2.623705;0;0;0;0;0;0;0;0;N/A;N/A;N/A;N/A;N/A;N/A;0;0;0;0;0;0;0;(0.0, 0.0);(0.0, 0.0);2;0;0.7071068;0;0.1155251;0;
2.630647;0;0;0;0;0;0;0;0;N/A;N/A;N/A;N/A;N/A;N/A;0;0;0;0;0;0;0;(0.0, 0.0);(0.0, 0.0);2;0;0.7071068;0;0.1155251;0;
2.640725;0;0;0;0;0;0;0;0;N/A;N/A;N/A;N/A;N/A;N/A;0;0;0;0;0;0;0;(0.0, 0.0);(0.0, 0.0);2;0;0.7071068;0;0.1155251;0;
2.648103;0;0;0;0;0;0;0;0;N/A;N/A;N/A;N/A;N/A;N/A;0;0;0;0;0;0;0;(0.0, 0.0);(0.0, 0.0);2;0;0.7071068;0;0.1151349;0;
2.655045;0;0;0;0;0;0;0;0;N/A;N/A;N/A;N/A;N/A;N/A;0;0;0;0;0;0;0;(0.0, 0.0);(0.0, 0.0);2;0;0.7071068;0;0.1151349;0;
2.661995;0;0;0;0;0;0;0;0;N/A;N/A;N/A;N/A;N/A;N/A;0;0;0;0;0;0;0;(0.0, 0.0);(0.0, 0.0);2;0;0.7071068;0;0.1151349;0;
2.669031;0;0;0;0;0;0;0;0;N/A;N/A;N/A;N/A;N/A;N/A;0;0;0;0;0;0;0;(0.0, 0.0);(0.0, 0.0);2;0;0.7071068;0;0.1151349;0;
2.675976;0;0;0;0;0;0;0;0;N/A;N/A;N/A;N/A;N/A;N/A;0;0;0;0;0;0;0;(0.0, 0.0);(0.0, 0.0);2;0;0.7071068;0;0.1151349;0;
2.683326;0;0;0;0;0;0;0;0;N/A;N/A;N/A;N/A;N/A;N/A;0;0;0;0;0;0;0;(0.0, 0.0);(0.0, 0.0);2;0;0.7071068;0;0.1151349;0;
2.690267;0;0;0;0;0;0;0;0;N/A;N/A;N/A;N/A;N/A;N/A;0;0;0;0;0;0;0;(0.0, 0.0);(0.0, 0.0);2;0;0.7071068;0;0.1151349;0;
2.697212;0;0;0;0;0;0;0;0;N/A;N/A;N/A;N/A;N/A;N/A;0;0;0;0;0;0;0;(0.0, 0.0);(0.0, 0.0);2;0;0.7071068;0;0.1151349;0;
2.704267;0;0;0;0;0;0;0;0;N/A;N/A;N/A;N/A;N/A;N/A;0;0;0;0;0;0;0;(0.0, 0.0);(0.0, 0.0);2;0;0.7071068;0;0.1151349;0;
2.71121;0;0;0;0;0;0;0;0;N/A;N/A;N/A;N/A;N/A;N/A;0;0;0;0;0;0;0;(0.0, 0.0);(0.0, 0.0);2;0;0.7071068;0;0.1151349;0;
2.718155;0;0;0;0;0;0;0;0;N/A;N/A;N/A;N/A;N/A;N/A;0;0;0;0;0;0;0;(0.0, 0.0);(0.0, 0.0);2;0;0.7071068;0;0.1151349;0;
2.7251;0;0;0;0;0;0;0;0;N/A;N/A;N/A;N/A;N/A;N/A;0;0;0;0;0;0;0;(0.0, 0.0);(0.0, 0.0);2;0;0.7071068;0;0.1151349;0;
2.732045;0;0;0;0;0;0;0;0;N/A;N/A;N/A;N/A;N/A;N/A;0;0;0;0;0;0;0;(0.0, 0.0);(0.0, 0.0);2;0;0.7071068;0;0.1151349;0;
2.73899;0;0;0;0;0;0;0;0;N/A;N/A;N/A;N/A;N/A;N/A;0;0;0;0;0;0;0;(0.0, 0.0);(0.0, 0.0);2;0;0.7071068;0;0.1151349;0;
2.74605;0;0;0;0;0;0;0;0;N/A;N/A;N/A;N/A;N/A;N/A;0;0;0;0;0;0;0;(0.0, 0.0);(0.0, 0.0);2;0;0.7071068;0;0.1151349;0;
2.753973;0;0;0;0;0;0;0;0;N/A;N/A;N/A;N/A;N/A;N/A;0;0;0;0;0;0;0;(0.0, 0.0);(0.0, 0.0);2;0;0.7071068;0;0.1147489;0;
2.761056;0;0;0;0;0;0;0;0;N/A;N/A;N/A;N/A;N/A;N/A;0;0;0;0;0;0;0;(0.0, 0.0);(0.0, 0.0);2;0;0.7071068;0;0.1147489;0;
2.768002;0;0;0;0;0;0;0;0;N/A;N/A;N/A;N/A;N/A;N/A;0;0;0;0;0;0;0;(0.0, 0.0);(0.0, 0.0);2;0;0.7071068;0;0.1147489;0;
2.774946;0;0;0;0;0;0;0;0;N/A;N/A;N/A;N/A;N/A;N/A;0;0;0;0;0;0;0;(0.0, 0.0);(0.0, 0.0);2;0;0.7071068;0;0.1147489;0;
2.781891;0;0;0;0;0;0;0;0;N/A;N/A;N/A;N/A;N/A;N/A;0;0;0;0;0;0;0;(0.0, 0.0);(0.0, 0.0);2;0;0.7071068;0;0.1147489;0;
2.788835;0;0;0;0;0;0;0;0;N/A;N/A;N/A;N/A;N/A;N/A;0;0;0;0;0;0;0;(0.0, 0.0);(0.0, 0.0);2;0;0.7071068;0;0.1147489;0;
2.795783;0;0;0;0;0;0;0;0;N/A;N/A;N/A;N/A;N/A;N/A;0;0;0;0;0;0;0;(0.0, 0.0);(0.0, 0.0);2;0;0.7071068;0;0.1147489;0;
2.802731;0;0;0;0;0;0;0;0;N/A;N/A;N/A;N/A;N/A;N/A;0;0;0;0;0;0;0;(0.0, 0.0);(0.0, 0.0);2;0;0.7071068;0;0.1147489;0;
2.810898;0;0;0;0;0;0;0;0;N/A;N/A;N/A;N/A;N/A;N/A;0;0;0;0;0;0;0;(0.0, 0.0);(0.0, 0.0);2;0;0.7071068;0;0.1147489;0;
2.817843;0;0;0;0;0;0;0;0;N/A;N/A;N/A;N/A;N/A;N/A;0;0;0;0;0;0;0;(0.0, 0.0);(0.0, 0.0);2;0;0.7071068;0;0.1147489;0;
2.824788;0;0;0;0;0;0;0;0;N/A;N/A;N/A;N/A;N/A;N/A;0;0;0;0;0;0;0;(0.0, 0.0);(0.0, 0.0);2;0;0.7071068;0;0.1147489;0;
2.831824;0;0;0;0;0;0;0;0;N/A;N/A;N/A;N/A;N/A;N/A;0;0;0;0;0;0;0;(0.0, 0.0);(0.0, 0.0);2;0;0.7071068;0;0.1147489;0;
2.838795;0;0;0;0;0;0;0;0;N/A;N/A;N/A;N/A;N/A;N/A;0;0;0;0;0;0;0;(0.0, 0.0);(0.0, 0.0);2;0;0.7071068;0;0.1147489;0;
2.84613;0;0;0;0;0;0;0;0;N/A;N/A;N/A;N/A;N/A;N/A;0;0;0;0;0;0;0;(0.0, 0.0);(0.0, 0.0);2;0;0.7071068;0;0.1147489;0;
2.853075;0;0;0;0;0;0;0;0;N/A;N/A;N/A;N/A;N/A;N/A;0;0;0;0;0;0;0;(0.0, 0.0);(0.0, 0.0);2;0;0.7071068;0;0.1147489;0;
2.86051;0;0;0;0;0;0;0;0;N/A;N/A;N/A;N/A;N/A;N/A;0;0;0;0;0;0;0;(0.0, 0.0);(0.0, 0.0);2;0;0.7071068;0;0.1144204;0;
2.868019;0;0;0;0;0;0;0;0;N/A;N/A;N/A;N/A;N/A;N/A;0;0;0;0;0;0;0;(0.0, 0.0);(0.0, 0.0);2;0;0.7071068;0;0.1144204;0;
2.875556;0;0;0;0;0;0;0;0;N/A;N/A;N/A;N/A;N/A;N/A;0;0;0;0;0;0;0;(0.0, 0.0);(0.0, 0.0);2;0;0.7071068;0;0.1144204;0;
2.882502;0;0;0;0;0;0;0;0;N/A;N/A;N/A;N/A;N/A;N/A;0;0;0;0;0;0;0;(0.0, 0.0);(0.0, 0.0);2;0;0.7071068;0;0.1144204;0;
2.889449;0;0;0;0;0;0;0;0;N/A;N/A;N/A;N/A;N/A;N/A;0;0;0;0;0;0;0;(0.0, 0.0);(0.0, 0.0);2;0;0.7071068;0;0.1144204;0;
2.896395;0;0;0;0;0;0;0;0;N/A;N/A;N/A;N/A;N/A;N/A;0;0;0;0;0;0;0;(0.0, 0.0);(0.0, 0.0);2;0;0.7071068;0;0.1144204;0;
2.903618;0;0;0;0;0;0;0;0;N/A;N/A;N/A;N/A;N/A;N/A;0;0;0;0;0;0;0;(0.0, 0.0);(0.0, 0.0);2;0;0.7071068;0;0.1144204;0;
2.910561;0;0;0;0;0;0;0;0;N/A;N/A;N/A;N/A;N/A;N/A;0;0;0;0;0;0;0;(0.0, 0.0);(0.0, 0.0);2;0;0.7071068;0;0.1144204;0;
2.917514;0;0;0;0;0;0;0;0;N/A;N/A;N/A;N/A;N/A;N/A;0;0;0;0;0;0;0;(0.0, 0.0);(0.0, 0.0);2;0;0.7071068;0;0.1144204;0;
2.925081;0;0;0;0;0;0;0;0;N/A;N/A;N/A;N/A;N/A;N/A;0;0;0;0;0;0;0;(0.0, 0.0);(0.0, 0.0);2;0;0.7071068;0;0.1144204;0;
2.932316;0;0;0;0;0;0;0;0;N/A;N/A;N/A;N/A;N/A;N/A;0;0;0;0;0;0;0;(0.0, 0.0);(0.0, 0.0);2;0;0.7071068;0;0.1144204;0;
2.939446;0;0;0;0;0;0;0;0;N/A;N/A;N/A;N/A;N/A;N/A;0;0;0;0;0;0;0;(0.0, 0.0);(0.0, 0.0);2;0;0.7071068;0;0.1144204;0;
2.946576;0;0;0;0;0;0;0;0;N/A;N/A;N/A;N/A;N/A;N/A;0;0;0;0;0;0;0;(0.0, 0.0);(0.0, 0.0);2;0;0.7071068;0;0.1144204;0;
2.95352;0;0;0;0;0;0;0;0;N/A;N/A;N/A;N/A;N/A;N/A;0;0;0;0;0;0;0;(0.0, 0.0);(0.0, 0.0);2;0;0.7071068;0;0.1144204;0;
2.960465;0;0;0;0;0;0;0;0;N/A;N/A;N/A;N/A;N/A;N/A;0;0;0;0;0;0;0;(0.0, 0.0);(0.0, 0.0);2;0;0.7071068;0;0.1144204;0;
2.967503;0;0;0;0;0;0;0;0;N/A;N/A;N/A;N/A;N/A;N/A;0;0;0;0;0;0;0;(0.0, 0.0);(0.0, 0.0);2;0;0.7071068;0;0.1141347;0;
2.974545;0;0;0;0;0;0;0;0;N/A;N/A;N/A;N/A;N/A;N/A;0;0;0;0;0;0;0;(0.0, 0.0);(0.0, 0.0);2;0;0.7071068;0;0.1141347;0;
2.982105;0;0;0;0;0;0;0;0;N/A;N/A;N/A;N/A;N/A;N/A;0;0;0;0;0;0;0;(0.0, 0.0);(0.0, 0.0);2;0;0.7071068;0;0.1141347;0;
2.989446;0;0;0;0;0;0;0;0;N/A;N/A;N/A;N/A;N/A;N/A;0;0;0;0;0;0;0;(0.0, 0.0);(0.0, 0.0);2;0;0.7071068;0;0.1141347;0;
2.99645;0;0;0;0;0;0;0;0;N/A;N/A;N/A;N/A;N/A;N/A;0;0;0;0;0;0;0;(0.0, 0.0);(0.0, 0.0);2;0;0.7071068;0;0.1141347;0;
3.003428;0;0;0;0;0;0;0;0;N/A;N/A;N/A;N/A;N/A;N/A;0;0;0;0;0;0;0;(0.0, 0.0);(0.0, 0.0);2;0;0.7071068;0;0.1141347;0;
3.010374;0;0;0;0;0;0;0;0;N/A;N/A;N/A;N/A;N/A;N/A;0;0;0;0;0;0;0;(0.0, 0.0);(0.0, 0.0);2;0;0.7071068;0;0.1141347;0;
3.018415;0;0;0;0;0;0;0;0;N/A;N/A;N/A;N/A;N/A;N/A;0;0;0;0;0;0;0;(0.0, 0.0);(0.0, 0.0);2;0;0.7071068;0;0.1141347;0;
3.025485;0;0;0;0;0;0;0;0;N/A;N/A;N/A;N/A;N/A;N/A;0;0;0;0;0;0;0;(0.0, 0.0);(0.0, 0.0);2;0;0.7071068;0;0.1141347;0;
3.032433;0;0;0;0;0;0;0;0;N/A;N/A;N/A;N/A;N/A;N/A;0;0;0;0;0;0;0;(0.0, 0.0);(0.0, 0.0);2;0;0.7071068;0;0.1141347;0;
3.03957;0;0;0;0;0;0;0;0;N/A;N/A;N/A;N/A;N/A;N/A;0;0;0;0;0;0;0;(0.0, 0.0);(0.0, 0.0);2;0;0.7071068;0;0.1141347;0;
3.046516;0;0;0;0;0;0;0;0;N/A;N/A;N/A;N/A;N/A;N/A;0;0;0;0;0;0;0;(0.0, 0.0);(0.0, 0.0);2;0;0.7071068;0;0.1141347;0;
3.053553;0;0;0;0;0;0;0;0;N/A;N/A;N/A;N/A;N/A;N/A;0;0;0;0;0;0;0;(0.0, 0.0);(0.0, 0.0);2;0;0.7071068;0;0.1141347;0;
3.060497;0;0;0;0;0;0;0;0;N/A;N/A;N/A;N/A;N/A;N/A;0;0;0;0;0;0;0;(0.0, 0.0);(0.0, 0.0);2;0;0.7071068;0;0.1141347;0;
3.067442;0;0;0;0;0;0;0;0;N/A;N/A;N/A;N/A;N/A;N/A;0;0;0;0;0;0;0;(0.0, 0.0);(0.0, 0.0);2;0;0.7071068;0;0.1141347;0;
3.074446;0;0;0;0;0;0;0;0;N/A;N/A;N/A;N/A;N/A;N/A;0;0;0;0;0;0;0;(0.0, 0.0);(0.0, 0.0);2;0;0.7071068;0;0.1138684;0;
3.081497;0;0;0;0;0;0;0;0;N/A;N/A;N/A;N/A;N/A;N/A;0;0;0;0;0;0;0;(0.0, 0.0);(0.0, 0.0);2;0;0.7071068;0;0.1138684;0;
3.088442;0;0;0;0;0;0;0;0;N/A;N/A;N/A;N/A;N/A;N/A;0;0;0;0;0;0;0;(0.0, 0.0);(0.0, 0.0);2;0;0.7071068;0;0.1138684;0;
3.095387;0;0;0;0;0;0;0;0;N/A;N/A;N/A;N/A;N/A;N/A;0;0;0;0;0;0;0;(0.0, 0.0);(0.0, 0.0);2;0;0.7071068;0;0.1138684;0;
3.102331;0;0;0;0;0;0;0;0;N/A;N/A;N/A;N/A;N/A;N/A;0;0;0;0;0;0;0;(0.0, 0.0);(0.0, 0.0);2;0;0.7071068;0;0.1138684;0;
3.109377;0;0;0;0;0;0;0;0;N/A;N/A;N/A;N/A;N/A;N/A;0;0;0;0;0;0;0;(0.0, 0.0);(0.0, 0.0);2;0;0.7071068;0;0.1138684;0;
3.116324;0;0;0;0;0;0;0;0;N/A;N/A;N/A;N/A;N/A;N/A;0;0;0;0;0;0;0;(0.0, 0.0);(0.0, 0.0);2;0;0.7071068;0;0.1138684;0;
3.123266;0;0;0;0;0;0;0;0;N/A;N/A;N/A;N/A;N/A;N/A;0;0;0;0;0;0;0;(0.0, 0.0);(0.0, 0.0);2;0;0.7071068;0;0.1138684;0;
3.130209;0;0;0;0;0;0;0;0;N/A;N/A;N/A;N/A;N/A;N/A;0;0;0;0;0;0;0;(0.0, 0.0);(0.0, 0.0);2;0;0.7071068;0;0.1138684;0;
3.137364;0;0;0;0;0;0;0;0;N/A;N/A;N/A;N/A;N/A;N/A;0;0;0;0;0;0;0;(0.0, 0.0);(0.0, 0.0);2;0;0.7071068;0;0.1138684;0;
3.144311;0;0;0;0;0;0;0;0;N/A;N/A;N/A;N/A;N/A;N/A;0;0;0;0;0;0;0;(0.0, 0.0);(0.0, 0.0);2;0;0.7071068;0;0.1138684;0;
3.152122;0;0;0;0;0;0;0;0;N/A;N/A;N/A;N/A;N/A;N/A;0;0;0;0;0;0;0;(0.0, 0.0);(0.0, 0.0);2;0;0.7071068;0;0.1138684;0;
3.159067;0;0;0;0;0;0;0;0;N/A;N/A;N/A;N/A;N/A;N/A;0;0;0;0;0;0;0;(0.0, 0.0);(0.0, 0.0);2;0;0.7071068;0;0.1138684;0;
3.16607;0;0;0;0;0;0;0;0;N/A;N/A;N/A;N/A;N/A;N/A;0;0;0;0;0;0;0;(0.0, 0.0);(0.0, 0.0);2;0;0.7071068;0;0.1138684;0;
3.17302;0;0;0;0;0;0;0;0;N/A;N/A;N/A;N/A;N/A;N/A;0;0;0;0;0;0;0;(0.0, 0.0);(0.0, 0.0);2;0;0.7071068;0;0.1138684;0;
3.180068;0;0;0;0;0;0;0;0;N/A;N/A;N/A;N/A;N/A;N/A;0;0;0;0;0;0;0;(0.0, 0.0);(0.0, 0.0);2;0;0.7071068;0;0.1135739;0;
3.187012;0;0;0;0;0;0;0;0;N/A;N/A;N/A;N/A;N/A;N/A;0;0;0;0;0;0;0;(0.0, 0.0);(0.0, 0.0);2;0;0.7071068;0;0.1135739;0;
3.193958;0;0;0;0;0;0;0;0;N/A;N/A;N/A;N/A;N/A;N/A;0;0;0;0;0;0;0;(0.0, 0.0);(0.0, 0.0);2;0;0.7071068;0;0.1135739;0;
3.201002;0;0;0;0;0;0;0;0;N/A;N/A;N/A;N/A;N/A;N/A;0;0;0;0;0;0;0;(0.0, 0.0);(0.0, 0.0);2;0;0.7071068;0;0.1135739;0;
3.207974;0;0;0;0;0;0;0;0;N/A;N/A;N/A;N/A;N/A;N/A;0;0;0;0;0;0;0;(0.0, 0.0);(0.0, 0.0);2;0;0.7071068;0;0.1135739;0;
3.214968;0;0;0;0;0;0;0;0;N/A;N/A;N/A;N/A;N/A;N/A;0;0;0;0;0;0;0;(0.0, 0.0);(0.0, 0.0);2;0;0.7071068;0;0.1135739;0;
3.221909;0;0;0;0;0;0;0;0;N/A;N/A;N/A;N/A;N/A;N/A;0;0;0;0;0;0;0;(0.0, 0.0);(0.0, 0.0);2;0;0.7071068;0;0.1135739;0;
3.228939;0;0;0;0;0;0;0;0;N/A;N/A;N/A;N/A;N/A;N/A;0;0;0;0;0;0;0;(0.0, 0.0);(0.0, 0.0);2;0;0.7071068;0;0.1135739;0;
3.235887;0;0;0;0;0;0;0;0;N/A;N/A;N/A;N/A;N/A;N/A;0;0;0;0;0;0;0;(0.0, 0.0);(0.0, 0.0);2;0;0.7071068;0;0.1135739;0;
3.242838;0;0;0;0;0;0;0;0;N/A;N/A;N/A;N/A;N/A;N/A;0;0;0;0;0;0;0;(0.0, 0.0);(0.0, 0.0);2;0;0.7071068;0;0.1135739;0;
3.249789;0;0;0;0;0;0;0;0;N/A;N/A;N/A;N/A;N/A;N/A;0;0;0;0;0;0;0;(0.0, 0.0);(0.0, 0.0);2;0;0.7071068;0;0.1135739;0;
3.257044;0;0;0;0;0;0;0;0;N/A;N/A;N/A;N/A;N/A;N/A;0;0;0;0;0;0;0;(0.0, 0.0);(0.0, 0.0);2;0;0.7071068;0;0.1135739;0;
3.263995;0;0;0;0;0;0;0;0;N/A;N/A;N/A;N/A;N/A;N/A;0;0;0;0;0;0;0;(0.0, 0.0);(0.0, 0.0);2;0;0.7071068;0;0.1135739;0;
3.270936;0;0;0;0;0;0;0;0;N/A;N/A;N/A;N/A;N/A;N/A;0;0;0;0;0;0;0;(0.0, 0.0);(0.0, 0.0);2;0;0.7071068;0;0.1135739;0;
3.277879;0;0;0;0;0;0;0;0;N/A;N/A;N/A;N/A;N/A;N/A;0;0;0;0;0;0;0;(0.0, 0.0);(0.0, 0.0);2;0;0.7071068;0;0.1135739;0;
3.286;0;0;0;0;0;0;0;0;N/A;N/A;N/A;N/A;N/A;N/A;0;0;0;0;0;0;0;(0.0, 0.0);(0.0, 0.0);2;0;0.7071068;0;0.1133104;0;
3.294024;0;0;0;0;0;0;0;0;N/A;N/A;N/A;N/A;N/A;N/A;0;0;0;0;0;0;0;(0.0, 0.0);(0.0, 0.0);2;0;0.7071068;0;0.1133104;0;
3.301689;0;0;0;0;0;0;0;0;N/A;N/A;N/A;N/A;N/A;N/A;0;0;0;0;0;0;0;(0.0, 0.0);(0.0, 0.0);2;0;0.7071068;0;0.1133104;0;
3.312271;0;0;0;0;0;0;0;0;N/A;N/A;N/A;N/A;N/A;N/A;0;0;0;0;0;0;0;(0.0, 0.0);(0.0, 0.0);2;0;0.7071068;0;0.1133104;0;
3.319217;0;0;0;0;0;0;0;0;N/A;N/A;N/A;N/A;N/A;N/A;0;0;0;0;0;0;0;(0.0, 0.0);(0.0, 0.0);2;0;0.7071068;0;0.1133104;0;
3.326165;0;0;0;0;0;0;0;0;N/A;N/A;N/A;N/A;N/A;N/A;0;0;0;0;0;0;0;(0.0, 0.0);(0.0, 0.0);2;0;0.7071068;0;0.1133104;0;
3.333106;0;0;0;0;0;0;0;0;N/A;N/A;N/A;N/A;N/A;N/A;0;0;0;0;0;0;0;(0.0, 0.0);(0.0, 0.0);2;0;0.7071068;0;0.1133104;0;
3.341028;0;0;0;0;0;0;0;0;N/A;N/A;N/A;N/A;N/A;N/A;0;0;0;0;0;0;0;(0.0, 0.0);(0.0, 0.0);2;0;0.7071068;0;0.1133104;0;
3.348882;0;0;0;0;0;0;0;0;N/A;N/A;N/A;N/A;N/A;N/A;0;0;0;0;0;0;0;(0.0, 0.0);(0.0, 0.0);2;0;0.7071068;0;0.1133104;0;
3.355949;0;0;0;0;0;0;0;0;N/A;N/A;N/A;N/A;N/A;N/A;0;0;0;0;0;0;0;(0.0, 0.0);(0.0, 0.0);2;0;0.7071068;0;0.1133104;0;
3.363531;0;0;0;0;0;0;0;0;N/A;N/A;N/A;N/A;N/A;N/A;0;0;0;0;0;0;0;(0.0, 0.0);(0.0, 0.0);2;0;0.7071068;0;0.1133104;0;
3.37081;0;0;0;0;0;0;0;0;N/A;N/A;N/A;N/A;N/A;N/A;0;0;0;0;0;0;0;(0.0, 0.0);(0.0, 0.0);2;0;0.7071068;0;0.1133104;0;
3.377848;0;0;0;0;0;0;0;0;N/A;N/A;N/A;N/A;N/A;N/A;0;0;0;0;0;0;0;(0.0, 0.0);(0.0, 0.0);2;0;0.7071068;0;0.1133104;0;
3.385816;0;0;0;0;0;0;0;0;N/A;N/A;N/A;N/A;N/A;N/A;0;0;0;0;0;0;0;(0.0, 0.0);(0.0, 0.0);2;0;0.7071068;0;0.1133104;0;
3.392765;0;0;0;0;0;0;0;0;N/A;N/A;N/A;N/A;N/A;N/A;0;0;0;0;0;0;0;(0.0, 0.0);(0.0, 0.0);2;0;0.7071068;0;0.1130922;0;
3.399712;0;0;0;0;0;0;0;0;N/A;N/A;N/A;N/A;N/A;N/A;0;0;0;0;0;0;0;(0.0, 0.0);(0.0, 0.0);2;0;0.7071068;0;0.1130922;0;
3.406671;0;0;0;0;0;0;0;0;N/A;N/A;N/A;N/A;N/A;N/A;0;0;0;0;0;0;0;(0.0, 0.0);(0.0, 0.0);2;0;0.7071068;0;0.1130922;0;
3.413771;0;0;0;0;0;0;0;0;N/A;N/A;N/A;N/A;N/A;N/A;0;0;0;0;0;0;0;(0.0, 0.0);(0.0, 0.0);2;0;0.7071068;0;0.1130922;0;
3.420755;0;0;0;0;0;0;0;0;N/A;N/A;N/A;N/A;N/A;N/A;0;0;0;0;0;0;0;(0.0, 0.0);(0.0, 0.0);2;0;0.7071068;0;0.1130922;0;
3.427704;0;0;0;0;0;0;0;0;N/A;N/A;N/A;N/A;N/A;N/A;0;0;0;0;0;0;0;(0.0, 0.0);(0.0, 0.0);2;0;0.7071068;0;0.1130922;0;
3.437904;0;0;0;0;0;0;0;0;N/A;N/A;N/A;N/A;N/A;N/A;0;0;0;0;0;0;0;(0.0, 0.0);(0.0, 0.0);2;0;0.7071068;0;0.1130922;0;
3.445707;0;0;0;0;0;0;0;0;N/A;N/A;N/A;N/A;N/A;N/A;0;0;0;0;0;0;0;(0.0, 0.0);(0.0, 0.0);2;0;0.7071068;0;0.1130922;0;
3.453649;0;0;0;0;0;0;0;0;N/A;N/A;N/A;N/A;N/A;N/A;0;0;0;0;0;0;0;(0.0, 0.0);(0.0, 0.0);2;0;0.7071068;0;0.1130922;0;
3.460685;0;0;0;0;0;0;0;0;N/A;N/A;N/A;N/A;N/A;N/A;0;0;0;0;0;0;0;(0.0, 0.0);(0.0, 0.0);2;0;0.7071068;0;0.1130922;0;
3.467636;0;0;0;0;0;0;0;0;N/A;N/A;N/A;N/A;N/A;N/A;0;0;0;0;0;0;0;(0.0, 0.0);(0.0, 0.0);2;0;0.7071068;0;0.1130922;0;
3.4746;0;0;0;0;0;0;0;0;N/A;N/A;N/A;N/A;N/A;N/A;0;0;0;0;0;0;0;(0.0, 0.0);(0.0, 0.0);2;0;0.7071068;0;0.1130922;0;
3.481593;0;0;0;0;0;0;0;0;N/A;N/A;N/A;N/A;N/A;N/A;0;0;0;0;0;0;0;(0.0, 0.0);(0.0, 0.0);2;0;0.7071068;0;0.1130922;0;
3.488537;0;0;0;0;0;0;0;0;N/A;N/A;N/A;N/A;N/A;N/A;0;0;0;0;0;0;0;(0.0, 0.0);(0.0, 0.0);2;0;0.7071068;0;0.1130922;0;
3.495595;0;0;0;0;0;0;0;0;N/A;N/A;N/A;N/A;N/A;N/A;0;0;0;0;0;0;0;(0.0, 0.0);(0.0, 0.0);2;0;0.7071068;0;0.1127611;0;
3.502669;0;0;0;0;0;0;0;0;N/A;N/A;N/A;N/A;N/A;N/A;0;0;0;0;0;0;0;(0.0, 0.0);(0.0, 0.0);2;0;0.7071068;0;0.1127611;0;
3.509613;0;0;0;0;0;0;0;0;N/A;N/A;N/A;N/A;N/A;N/A;0;0;0;0;0;0;0;(0.0, 0.0);(0.0, 0.0);2;0;0.7071068;0;0.1127611;0;
3.516554;0;0;0;0;0;0;0;0;N/A;N/A;N/A;N/A;N/A;N/A;0;0;0;0;0;0;0;(0.0, 0.0);(0.0, 0.0);2;0;0.7071068;0;0.1127611;0;
3.523498;0;0;0;0;0;0;0;0;N/A;N/A;N/A;N/A;N/A;N/A;0;0;0;0;0;0;0;(0.0, 0.0);(0.0, 0.0);2;0;0.7071068;0;0.1127611;0;
3.531357;0;0;0;0;0;0;0;0;N/A;N/A;N/A;N/A;N/A;N/A;0;0;0;0;0;0;0;(0.0, 0.0);(0.0, 0.0);2;0;0.7071068;0;0.1127611;0;
3.538302;0;0;0;0;0;0;0;0;N/A;N/A;N/A;N/A;N/A;N/A;0;0;0;0;0;0;0;(0.0, 0.0);(0.0, 0.0);2;0;0.7071068;0;0.1127611;0;
3.545246;0;0;0;0;0;0;0;0;N/A;N/A;N/A;N/A;N/A;N/A;0;0;0;0;0;0;0;(0.0, 0.0);(0.0, 0.0);2;0;0.7071068;0;0.1127611;0;
3.552192;0;0;0;0;0;0;0;0;N/A;N/A;N/A;N/A;N/A;N/A;0;0;0;0;0;0;0;(0.0, 0.0);(0.0, 0.0);2;0;0.7071068;0;0.1127611;0;
3.559135;0;0;0;0;0;0;0;0;N/A;N/A;N/A;N/A;N/A;N/A;0;0;0;0;0;0;0;(0.0, 0.0);(0.0, 0.0);2;0;0.7071068;0;0.1127611;0;
3.566345;0;0;0;0;0;0;0;0;N/A;N/A;N/A;N/A;N/A;N/A;0;0;0;0;0;0;0;(0.0, 0.0);(0.0, 0.0);2;0;0.7071068;0;0.1127611;0;
3.573287;0;0;0;0;0;0;0;0;N/A;N/A;N/A;N/A;N/A;N/A;0;0;0;0;0;0;0;(0.0, 0.0);(0.0, 0.0);2;0;0.7071068;0;0.1127611;0;
3.580232;0;0;0;0;0;0;0;0;N/A;N/A;N/A;N/A;N/A;N/A;0;0;0;0;0;0;0;(0.0, 0.0);(0.0, 0.0);2;0;0.7071068;0;0.1127611;0;
3.587178;0;0;0;0;0;0;0;0;N/A;N/A;N/A;N/A;N/A;N/A;0;0;0;0;0;0;0;(0.0, 0.0);(0.0, 0.0);2;0;0.7071068;0;0.1127611;0;
3.594122;0;0;0;0;0;0;0;0;N/A;N/A;N/A;N/A;N/A;N/A;0;0;0;0;0;0;0;(0.0, 0.0);(0.0, 0.0);2;0;0.7071068;0;0.1127611;0;
3.601598;0;0;0;0;0;0;0;0;N/A;N/A;N/A;N/A;N/A;N/A;0;0;0;0;0;0;0;(0.0, 0.0);(0.0, 0.0);2;0;0.7071068;0;0.1125499;0;
3.609096;0;0;0;0;0;0;0;0;N/A;N/A;N/A;N/A;N/A;N/A;0;0;0;0;0;0;0;(0.0, 0.0);(0.0, 0.0);2;0;0.7071068;0;0.1125499;0;
3.616041;0;0;0;0;0;0;0;0;N/A;N/A;N/A;N/A;N/A;N/A;0;0;0;0;0;0;0;(0.0, 0.0);(0.0, 0.0);2;0;0.7071068;0;0.1125499;0;
3.622986;0;0;0;0;0;0;0;0;N/A;N/A;N/A;N/A;N/A;N/A;0;0;0;0;0;0;0;(0.0, 0.0);(0.0, 0.0);2;0;0.7071068;0;0.1125499;0;
3.632733;0;0;0;0;0;0;0;0;N/A;N/A;N/A;N/A;N/A;N/A;0;0;0;0;0;0;0;(0.0, 0.0);(0.0, 0.0);2;0;0.7071068;0;0.1125499;0;
3.639849;0;0;0;0;0;0;0;0;N/A;N/A;N/A;N/A;N/A;N/A;0;0;0;0;0;0;0;(0.0, 0.0);(0.0, 0.0);2;0;0.7071068;0;0.1125499;0;
3.646838;0;0;0;0;0;0;0;0;N/A;N/A;N/A;N/A;N/A;N/A;0;0;0;0;0;0;0;(0.0, 0.0);(0.0, 0.0);2;0;0.7071068;0;0.1125499;0;
3.653784;0;0;0;0;0;0;0;0;N/A;N/A;N/A;N/A;N/A;N/A;0;0;0;0;0;0;0;(0.0, 0.0);(0.0, 0.0);2;0;0.7071068;0;0.1125499;0;
3.660727;0;0;0;0;0;0;0;0;N/A;N/A;N/A;N/A;N/A;N/A;0;0;0;0;0;0;0;(0.0, 0.0);(0.0, 0.0);2;0;0.7071068;0;0.1125499;0;
3.667671;0;0;0;0;0;0;0;0;N/A;N/A;N/A;N/A;N/A;N/A;0;0;0;0;0;0;0;(0.0, 0.0);(0.0, 0.0);2;0;0.7071068;0;0.1125499;0;
3.674998;0;0;0;0;0;0;0;0;N/A;N/A;N/A;N/A;N/A;N/A;0;0;0;0;0;0;0;(0.0, 0.0);(0.0, 0.0);2;0;0.7071068;0;0.1125499;0;
3.683048;0;0;0;0;0;0;0;0;N/A;N/A;N/A;N/A;N/A;N/A;0;0;0;0;0;0;0;(0.0, 0.0);(0.0, 0.0);2;0;0.7071068;0;0.1125499;0;
3.689992;0;0;0;0;0;0;0;0;N/A;N/A;N/A;N/A;N/A;N/A;0;0;0;0;0;0;0;(0.0, 0.0);(0.0, 0.0);2;0;0.7071068;0;0.1125499;0;
3.69764;0;0;0;0;0;0;0;0;N/A;N/A;N/A;N/A;N/A;N/A;0;0;0;0;0;0;0;(0.0, 0.0);(0.0, 0.0);2;0;0.7071068;0;0.1125499;0;
3.704585;0;0;0;0;0;0;0;0;N/A;N/A;N/A;N/A;N/A;N/A;0;0;0;0;0;0;0;(0.0, 0.0);(0.0, 0.0);2;0;0.7071068;0;0.1122601;0;
3.711529;0;0;0;0;0;0;0;0;N/A;N/A;N/A;N/A;N/A;N/A;0;0;0;0;0;0;0;(0.0, 0.0);(0.0, 0.0);2;0;0.7071068;0;0.1122601;0;
3.718474;0;0;0;0;0;0;0;0;N/A;N/A;N/A;N/A;N/A;N/A;0;0;0;0;0;0;0;(0.0, 0.0);(0.0, 0.0);2;0;0.7071068;0;0.1122601;0;
3.726503;0;0;0;0;0;0;0;0;N/A;N/A;N/A;N/A;N/A;N/A;0;0;0;0;0;0;0;(0.0, 0.0);(0.0, 0.0);2;0;0.7071068;0;0.1122601;0;
3.733448;0;0;0;0;0;0;0;0;N/A;N/A;N/A;N/A;N/A;N/A;0;0;0;0;0;0;0;(0.0, 0.0);(0.0, 0.0);2;0;0.7071068;0;0.1122601;0;
3.740658;0;0;0;0;0;0;0;0;N/A;N/A;N/A;N/A;N/A;N/A;0;0;0;0;0;0;0;(0.0, 0.0);(0.0, 0.0);2;0;0.7071068;0;0.1122601;0;
3.747602;0;0;0;0;0;0;0;0;N/A;N/A;N/A;N/A;N/A;N/A;0;0;0;0;0;0;0;(0.0, 0.0);(0.0, 0.0);2;0;0.7071068;0;0.1122601;0;
3.754546;0;0;0;0;0;0;0;0;N/A;N/A;N/A;N/A;N/A;N/A;0;0;0;0;0;0;0;(0.0, 0.0);(0.0, 0.0);2;0;0.7071068;0;0.1122601;0;
3.761491;0;0;0;0;0;0;0;0;N/A;N/A;N/A;N/A;N/A;N/A;0;0;0;0;0;0;0;(0.0, 0.0);(0.0, 0.0);2;0;0.7071068;0;0.1122601;0;
3.768435;0;0;0;0;0;0;0;0;N/A;N/A;N/A;N/A;N/A;N/A;0;0;0;0;0;0;0;(0.0, 0.0);(0.0, 0.0);2;0;0.7071068;0;0.1122601;0;
3.77538;0;0;0;0;0;0;0;0;N/A;N/A;N/A;N/A;N/A;N/A;0;0;0;0;0;0;0;(0.0, 0.0);(0.0, 0.0);2;0;0.7071068;0;0.1122601;0;
3.782325;0;0;0;0;0;0;0;0;N/A;N/A;N/A;N/A;N/A;N/A;0;0;0;0;0;0;0;(0.0, 0.0);(0.0, 0.0);2;0;0.7071068;0;0.1122601;0;
3.789269;0;0;0;0;0;0;0;0;N/A;N/A;N/A;N/A;N/A;N/A;0;0;0;0;0;0;0;(0.0, 0.0);(0.0, 0.0);2;0;0.7071068;0;0.1122601;0;
3.796214;0;0;0;0;0;0;0;0;N/A;N/A;N/A;N/A;N/A;N/A;0;0;0;0;0;0;0;(0.0, 0.0);(0.0, 0.0);2;0;0.7071068;0;0.1122601;0;
3.803159;0;0;0;0;0;0;0;0;N/A;N/A;N/A;N/A;N/A;N/A;0;0;0;0;0;0;0;(0.0, 0.0);(0.0, 0.0);2;0;0.7071068;0;0.1122601;0;
3.810104;0;0;0;0;0;0;0;0;N/A;N/A;N/A;N/A;N/A;N/A;0;0;0;0;0;0;0;(0.0, 0.0);(0.0, 0.0);2;0;0.7071068;0;0.1120619;0;
3.817048;0;0;0;0;0;0;0;0;N/A;N/A;N/A;N/A;N/A;N/A;0;0;0;0;0;0;0;(0.0, 0.0);(0.0, 0.0);2;0;0.7071068;0;0.1120619;0;
3.823997;0;0;0;0;0;0;0;0;N/A;N/A;N/A;N/A;N/A;N/A;0;0;0;0;0;0;0;(0.0, 0.0);(0.0, 0.0);2;0;0.7071068;0;0.1120619;0;
3.83163;0;0;0;0;0;0;0;0;N/A;N/A;N/A;N/A;N/A;N/A;0;0;0;0;0;0;0;(0.0, 0.0);(0.0, 0.0);2;0;0.7071068;0;0.1120619;0;
3.838659;0;0;0;0;0;0;0;0;N/A;N/A;N/A;N/A;N/A;N/A;0;0;0;0;0;0;0;(0.0, 0.0);(0.0, 0.0);2;0;0.7071068;0;0.1120619;0;
3.845915;0;0;0;0;0;0;0;0;N/A;N/A;N/A;N/A;N/A;N/A;0;0;0;0;0;0;0;(0.0, 0.0);(0.0, 0.0);2;0;0.7071068;0;0.1120619;0;
3.853678;0;0;0;0;0;0;0;0;N/A;N/A;N/A;N/A;N/A;N/A;0;0;0;0;0;0;0;(0.0, 0.0);(0.0, 0.0);2;0;0.7071068;0;0.1120619;0;
3.860625;0;0;0;0;0;0;0;0;N/A;N/A;N/A;N/A;N/A;N/A;0;0;0;0;0;0;0;(0.0, 0.0);(0.0, 0.0);2;0;0.7071068;0;0.1120619;0;
3.867626;0;0;0;0;0;0;0;0;N/A;N/A;N/A;N/A;N/A;N/A;0;0;0;0;0;0;0;(0.0, 0.0);(0.0, 0.0);2;0;0.7071068;0;0.1120619;0;
3.874661;0;0;0;0;0;0;0;0;N/A;N/A;N/A;N/A;N/A;N/A;0;0;0;0;0;0;0;(0.0, 0.0);(0.0, 0.0);2;0;0.7071068;0;0.1120619;0;
3.881623;0;0;0;0;0;0;0;0;N/A;N/A;N/A;N/A;N/A;N/A;0;0;0;0;0;0;0;(0.0, 0.0);(0.0, 0.0);2;0;0.7071068;0;0.1120619;0;
3.888579;0;0;0;0;0;0;0;0;N/A;N/A;N/A;N/A;N/A;N/A;0;0;0;0;0;0;0;(0.0, 0.0);(0.0, 0.0);2;0;0.7071068;0;0.1120619;0;
3.895621;0;0;0;0;0;0;0;0;N/A;N/A;N/A;N/A;N/A;N/A;0;0;0;0;0;0;0;(0.0, 0.0);(0.0, 0.0);2;0;0.7071068;0;0.1120619;0;
3.90257;0;0;0;0;0;0;0;0;N/A;N/A;N/A;N/A;N/A;N/A;0;0;0;0;0;0;0;(0.0, 0.0);(0.0, 0.0);2;0;0.7071068;0;0.1120619;0;
3.909624;0;0;0;0;0;0;0;0;N/A;N/A;N/A;N/A;N/A;N/A;0;0;0;0;0;0;0;(0.0, 0.0);(0.0, 0.0);2;0;0.7071068;0;0.1120619;0;
3.916571;0;0;0;0;0;0;0;0;N/A;N/A;N/A;N/A;N/A;N/A;0;0;0;0;0;0;0;(0.0, 0.0);(0.0, 0.0);2;0;0.7071068;0;0.111902;0;
3.923548;0;0;0;0;0;0;0;0;N/A;N/A;N/A;N/A;N/A;N/A;0;0;0;0;0;0;0;(0.0, 0.0);(0.0, 0.0);2;0;0.7071068;0;0.111902;0;
3.930945;0;0;0;0;0;0;0;0;N/A;N/A;N/A;N/A;N/A;N/A;0;0;0;0;0;0;0;(0.0, 0.0);(0.0, 0.0);2;0;0.7071068;0;0.111902;0;
3.93789;0;0;0;0;0;0;0;0;N/A;N/A;N/A;N/A;N/A;N/A;0;0;0;0;0;0;0;(0.0, 0.0);(0.0, 0.0);2;0;0.7071068;0;0.111902;0;
3.944835;0;0;0;0;0;0;0;0;N/A;N/A;N/A;N/A;N/A;N/A;0;0;0;0;0;0;0;(0.0, 0.0);(0.0, 0.0);2;0;0.7071068;0;0.111902;0;
3.95208;0;0;0;0;0;0;0;0;N/A;N/A;N/A;N/A;N/A;N/A;0;0;0;0;0;0;0;(0.0, 0.0);(0.0, 0.0);2;0;0.7071068;0;0.111902;0;
3.959026;0;0;0;0;0;0;0;0;N/A;N/A;N/A;N/A;N/A;N/A;0;0;0;0;0;0;0;(0.0, 0.0);(0.0, 0.0);2;0;0.7071068;0;0.111902;0;
3.966538;0;0;0;0;0;0;0;0;N/A;N/A;N/A;N/A;N/A;N/A;0;0;0;0;0;0;0;(0.0, 0.0);(0.0, 0.0);2;0;0.7071068;0;0.111902;0;
3.973559;0;0;0;0;0;0;0;0;N/A;N/A;N/A;N/A;N/A;N/A;0;0;0;0;0;0;0;(0.0, 0.0);(0.0, 0.0);2;0;0.7071068;0;0.111902;0;
3.98048;0;0;0;0;0;0;0;0;N/A;N/A;N/A;N/A;N/A;N/A;0;0;0;0;0;0;0;(0.0, 0.0);(0.0, 0.0);2;0;0.7071068;0;0.111902;0;
3.987424;0;0;0;0;0;0;0;0;N/A;N/A;N/A;N/A;N/A;N/A;0;0;0;0;0;0;0;(0.0, 0.0);(0.0, 0.0);2;0;0.7071068;0;0.111902;0;
3.994371;0;0;0;0;0;0;0;0;N/A;N/A;N/A;N/A;N/A;N/A;0;0;0;0;0;0;0;(0.0, 0.0);(0.0, 0.0);2;0;0.7071068;0;0.111902;0;
4.001314;0;0;0;0;0;0;0;0;N/A;N/A;N/A;N/A;N/A;N/A;0;0;0;0;0;0;0;(0.0, 0.0);(0.0, 0.0);2;0;0.7071068;0;0.111902;0;
4.008727;0;0;0;0;0;0;0;0;N/A;N/A;N/A;N/A;N/A;N/A;0;0;0;0;0;0;0;(0.0, 0.0);(0.0, 0.0);2;0;0.7071068;0;0.111902;0;
4.015674;0;0;0;0;0;0;0;0;N/A;N/A;N/A;N/A;N/A;N/A;0;0;0;0;0;0;0;(0.0, 0.0);(0.0, 0.0);2;0;0.7071068;0;0.111902;0;
4.022619;0;0;0;0;0;0;0;0;N/A;N/A;N/A;N/A;N/A;N/A;0;0;0;0;0;0;0;(0.0, 0.0);(0.0, 0.0);2;0;0.7071068;0;0.1117394;0;
4.03319;0;0;0;0;0;0;0;0;N/A;N/A;N/A;N/A;N/A;N/A;0;0;0;0;0;0;0;(0.0, 0.0);(0.0, 0.0);2;0;0.7071068;0;0.1117394;0;
4.043506;0;0;0;0;0;0;0;0;N/A;N/A;N/A;N/A;N/A;N/A;0;0;0;0;0;0;0;(0.0, 0.0);(0.0, 0.0);2;0;0.7071068;0;0.1117394;0;
4.05045;0;0;0;0;0;0;0;0;N/A;N/A;N/A;N/A;N/A;N/A;0;0;0;0;0;0;0;(0.0, 0.0);(0.0, 0.0);2;0;0.7071068;0;0.1117394;0;
4.057645;0;0;0;0;0;0;0;0;N/A;N/A;N/A;N/A;N/A;N/A;0;0;0;0;0;0;0;(0.0, 0.0);(0.0, 0.0);2;0;0.7071068;0;0.1117394;0;
4.065624;0;0;0;0;0;0;0;0;N/A;N/A;N/A;N/A;N/A;N/A;0;0;0;0;0;0;0;(0.0, 0.0);(0.0, 0.0);2;0;0.7071068;0;0.1117394;0;
4.072566;0;0;0;0;0;0;0;0;N/A;N/A;N/A;N/A;N/A;N/A;0;0;0;0;0;0;0;(0.0, 0.0);(0.0, 0.0);2;0;0.7071068;0;0.1117394;0;
4.07951;0;0;0;0;0;0;0;0;N/A;N/A;N/A;N/A;N/A;N/A;0;0;0;0;0;0;0;(0.0, 0.0);(0.0, 0.0);2;0;0.7071068;0;0.1117394;0;
4.086535;0;0;0;0;0;0;0;0;N/A;N/A;N/A;N/A;N/A;N/A;0;0;0;0;0;0;0;(0.0, 0.0);(0.0, 0.0);2;0;0.7071068;0;0.1117394;0;
4.093479;0;0;0;0;0;0;0;0;N/A;N/A;N/A;N/A;N/A;N/A;0;0;0;0;0;0;0;(0.0, 0.0);(0.0, 0.0);2;0;0.7071068;0;0.1117394;0;
4.100424;0;0;0;0;0;0;0;0;N/A;N/A;N/A;N/A;N/A;N/A;0;0;0;0;0;0;0;(0.0, 0.0);(0.0, 0.0);2;0;0.7071068;0;0.1117394;0;
4.108427;0;0;0;0;0;0;0;0;N/A;N/A;N/A;N/A;N/A;N/A;0;0;0;0;0;0;0;(0.0, 0.0);(0.0, 0.0);2;0;0.7071068;0;0.1117394;0;
4.115372;0;0;0;0;0;0;0;0;N/A;N/A;N/A;N/A;N/A;N/A;0;0;0;0;0;0;0;(0.0, 0.0);(0.0, 0.0);2;0;0.7071068;0;0.1117394;0;
4.122317;0;0;0;0;0;0;0;0;N/A;N/A;N/A;N/A;N/A;N/A;0;0;0;0;0;0;0;(0.0, 0.0);(0.0, 0.0);2;0;0.7071068;0;0.1117394;0;
4.129262;0;0;0;0;0;0;0;0;N/A;N/A;N/A;N/A;N/A;N/A;0;0;0;0;0;0;0;(0.0, 0.0);(0.0, 0.0);2;0;0.7071068;0;0.1116017;0;
4.137487;0;0;0;0;0;0;0;0;N/A;N/A;N/A;N/A;N/A;N/A;0;0;0;0;0;0;0;(0.0, 0.0);(0.0, 0.0);2;0;0.7071068;0;0.1116017;0;
4.144439;0;0;0;0;0;0;0;0;N/A;N/A;N/A;N/A;N/A;N/A;0;0;0;0;0;0;0;(0.0, 0.0);(0.0, 0.0);2;0;0.7071068;0;0.1116017;0;
4.151378;0;0;0;0;0;0;0;0;N/A;N/A;N/A;N/A;N/A;N/A;0;0;0;0;0;0;0;(0.0, 0.0);(0.0, 0.0);2;0;0.7071068;0;0.1116017;0;
4.15833;0;0;0;0;0;0;0;0;N/A;N/A;N/A;N/A;N/A;N/A;0;0;0;0;0;0;0;(0.0, 0.0);(0.0, 0.0);2;0;0.7071068;0;0.1116017;0;
4.165269;0;0;0;0;0;0;0;0;N/A;N/A;N/A;N/A;N/A;N/A;0;0;0;0;0;0;0;(0.0, 0.0);(0.0, 0.0);2;0;0.7071068;0;0.1116017;0;
4.172213;0;0;0;0;0;0;0;0;N/A;N/A;N/A;N/A;N/A;N/A;0;0;0;0;0;0;0;(0.0, 0.0);(0.0, 0.0);2;0;0.7071068;0;0.1116017;0;
4.17916;0;0;0;0;0;0;0;0;N/A;N/A;N/A;N/A;N/A;N/A;0;0;0;0;0;0;0;(0.0, 0.0);(0.0, 0.0);2;0;0.7071068;0;0.1116017;0;
4.186108;0;0;0;0;0;0;0;0;N/A;N/A;N/A;N/A;N/A;N/A;0;0;0;0;0;0;0;(0.0, 0.0);(0.0, 0.0);2;0;0.7071068;0;0.1116017;0;
4.193333;0;0;0;0;0;0;0;0;N/A;N/A;N/A;N/A;N/A;N/A;0;0;0;0;0;0;0;(0.0, 0.0);(0.0, 0.0);2;0;0.7071068;0;0.1116017;0;
4.200278;0;0;0;0;0;0;0;0;N/A;N/A;N/A;N/A;N/A;N/A;0;0;0;0;0;0;0;(0.0, 0.0);(0.0, 0.0);2;0;0.7071068;0;0.1116017;0;
4.207222;0;0;0;0;0;0;0;0;N/A;N/A;N/A;N/A;N/A;N/A;0;0;0;0;0;0;0;(0.0, 0.0);(0.0, 0.0);2;0;0.7071068;0;0.1116017;0;
4.214233;0;0;0;0;0;0;0;0;N/A;N/A;N/A;N/A;N/A;N/A;0;0;0;0;0;0;0;(0.0, 0.0);(0.0, 0.0);2;0;0.7071068;0;0.1116017;0;
4.221178;0;0;0;0;0;0;0;0;N/A;N/A;N/A;N/A;N/A;N/A;0;0;0;0;0;0;0;(0.0, 0.0);(0.0, 0.0);2;0;0.7071068;0;0.1116017;0;
4.228766;0;0;0;0;0;0;0;0;N/A;N/A;N/A;N/A;N/A;N/A;0;0;0;0;0;0;0;(0.0, 0.0);(0.0, 0.0);2;0;0.7071068;0;0.1116017;0;
4.235714;0;0;0;0;0;0;0;0;N/A;N/A;N/A;N/A;N/A;N/A;0;0;0;0;0;0;0;(0.0, 0.0);(0.0, 0.0);2;0;0.7071068;0;0.1114662;0;
4.242658;0;0;0;0;0;0;0;0;N/A;N/A;N/A;N/A;N/A;N/A;0;0;0;0;0;0;0;(0.0, 0.0);(0.0, 0.0);2;0;0.7071068;0;0.1114662;0;
4.249599;0;0;0;0;0;0;0;0;N/A;N/A;N/A;N/A;N/A;N/A;0;0;0;0;0;0;0;(0.0, 0.0);(0.0, 0.0);2;0;0.7071068;0;0.1114662;0;
4.257056;0;0;0;0;0;0;0;0;N/A;N/A;N/A;N/A;N/A;N/A;0;0;0;0;0;0;0;(0.0, 0.0);(0.0, 0.0);2;0;0.7071068;0;0.1114662;0;
4.264007;0;0;0;0;0;0;0;0;N/A;N/A;N/A;N/A;N/A;N/A;0;0;0;0;0;0;0;(0.0, 0.0);(0.0, 0.0);2;0;0.7071068;0;0.1114662;0;
4.271029;0;0;0;0;0;0;0;0;N/A;N/A;N/A;N/A;N/A;N/A;0;0;0;0;0;0;0;(0.0, 0.0);(0.0, 0.0);2;0;0.7071068;0;0.1114662;0;
4.278061;0;0;0;0;0;0;0;0;N/A;N/A;N/A;N/A;N/A;N/A;0;0;0;0;0;0;0;(0.0, 0.0);(0.0, 0.0);2;0;0.7071068;0;0.1114662;0;
4.285766;0;0;0;0;0;0;0;0;N/A;N/A;N/A;N/A;N/A;N/A;0;0;0;0;0;0;0;(0.0, 0.0);(0.0, 0.0);2;0;0.7071068;0;0.1114662;0;
4.292707;0;0;0;0;0;0;0;0;N/A;N/A;N/A;N/A;N/A;N/A;0;0;0;0;0;0;0;(0.0, 0.0);(0.0, 0.0);2;0;0.7071068;0;0.1114662;0;
4.299871;0;0;0;0;0;0;0;0;N/A;N/A;N/A;N/A;N/A;N/A;0;0;0;0;0;0;0;(0.0, 0.0);(0.0, 0.0);2;0;0.7071068;0;0.1114662;0;
4.306817;0;0;0;0;0;0;0;0;N/A;N/A;N/A;N/A;N/A;N/A;0;0;0;0;0;0;0;(0.0, 0.0);(0.0, 0.0);2;0;0.7071068;0;0.1114662;0;
4.31378;0;0;0;0;0;0;0;0;N/A;N/A;N/A;N/A;N/A;N/A;0;0;0;0;0;0;0;(0.0, 0.0);(0.0, 0.0);2;0;0.7071068;0;0.1114662;0;
4.321526;0;0;0;0;0;0;0;0;N/A;N/A;N/A;N/A;N/A;N/A;0;0;0;0;0;0;0;(0.0, 0.0);(0.0, 0.0);2;0;0.7071068;0;0.1114662;0;
4.329778;0;0;0;0;0;0;0;0;N/A;N/A;N/A;N/A;N/A;N/A;0;0;0;0;0;0;0;(0.0, 0.0);(0.0, 0.0);2;0;0.7071068;0;0.1114662;0;
4.336906;0;0;0;0;0;0;0;0;N/A;N/A;N/A;N/A;N/A;N/A;0;0;0;0;0;0;0;(0.0, 0.0);(0.0, 0.0);2;0;0.7071068;0;0.1112027;0;
4.343851;0;0;0;0;0;0;0;0;N/A;N/A;N/A;N/A;N/A;N/A;0;0;0;0;0;0;0;(0.0, 0.0);(0.0, 0.0);2;0;0.7071068;0;0.1112027;0;
4.351357;0;0;0;0;0;0;0;0;N/A;N/A;N/A;N/A;N/A;N/A;0;0;0;0;0;0;0;(0.0, 0.0);(0.0, 0.0);2;0;0.7071068;0;0.1112027;0;
4.358303;0;0;0;0;0;0;0;0;N/A;N/A;N/A;N/A;N/A;N/A;0;0;0;0;0;0;0;(0.0, 0.0);(0.0, 0.0);2;0;0.7071068;0;0.1112027;0;
4.365596;0;0;0;0;0;0;0;0;N/A;N/A;N/A;N/A;N/A;N/A;0;0;0;0;0;0;0;(0.0, 0.0);(0.0, 0.0);2;0;0.7071068;0;0.1112027;0;
4.372546;0;0;0;0;0;0;0;0;N/A;N/A;N/A;N/A;N/A;N/A;0;0;0;0;0;0;0;(0.0, 0.0);(0.0, 0.0);2;0;0.7071068;0;0.1112027;0;
4.379485;0;0;0;0;0;0;0;0;N/A;N/A;N/A;N/A;N/A;N/A;0;0;0;0;0;0;0;(0.0, 0.0);(0.0, 0.0);2;0;0.7071068;0;0.1112027;0;
4.386432;0;0;0;0;0;0;0;0;N/A;N/A;N/A;N/A;N/A;N/A;0;0;0;0;0;0;0;(0.0, 0.0);(0.0, 0.0);2;0;0.7071068;0;0.1112027;0;
4.394298;0;0;0;0;0;0;0;0;N/A;N/A;N/A;N/A;N/A;N/A;0;0;0;0;0;0;0;(0.0, 0.0);(0.0, 0.0);2;0;0.7071068;0;0.1112027;0;
4.40131;0;0;0;0;0;0;0;0;N/A;N/A;N/A;N/A;N/A;N/A;0;0;0;0;0;0;0;(0.0, 0.0);(0.0, 0.0);2;0;0.7071068;0;0.1112027;0;
4.408309;0;0;0;0;0;0;0;0;N/A;N/A;N/A;N/A;N/A;N/A;0;0;0;0;0;0;0;(0.0, 0.0);(0.0, 0.0);2;0;0.7071068;0;0.1112027;0;
4.415254;0;0;0;0;0;0;0;0;N/A;N/A;N/A;N/A;N/A;N/A;0;0;0;0;0;0;0;(0.0, 0.0);(0.0, 0.0);2;0;0.7071068;0;0.1112027;0;
4.422512;0;0;0;0;0;0;0;0;N/A;N/A;N/A;N/A;N/A;N/A;0;0;0;0;0;0;0;(0.0, 0.0);(0.0, 0.0);2;0;0.7071068;0;0.1112027;0;
4.429454;0;0;0;0;0;0;0;0;N/A;N/A;N/A;N/A;N/A;N/A;0;0;0;0;0;0;0;(0.0, 0.0);(0.0, 0.0);2;0;0.7071068;0;0.1112027;0;
4.436467;0;0;0;0;0;0;0;0;N/A;N/A;N/A;N/A;N/A;N/A;0;0;0;0;0;0;0;(0.0, 0.0);(0.0, 0.0);2;0;0.7071068;0;0.1112027;0;
4.443412;0;0;0;0;0;0;0;0;N/A;N/A;N/A;N/A;N/A;N/A;0;0;0;0;0;0;0;(0.0, 0.0);(0.0, 0.0);2;0;0.7071068;0;0.1110853;0;
4.450357;0;0;0;0;0;0;0;0;N/A;N/A;N/A;N/A;N/A;N/A;0;0;0;0;0;0;0;(0.0, 0.0);(0.0, 0.0);2;0;0.7071068;0;0.1110853;0;
4.457301;0;0;0;0;0;0;0;0;N/A;N/A;N/A;N/A;N/A;N/A;0;0;0;0;0;0;0;(0.0, 0.0);(0.0, 0.0);2;0;0.7071068;0;0.1110853;0;
4.464246;0;0;0;0;0;0;0;0;N/A;N/A;N/A;N/A;N/A;N/A;0;0;0;0;0;0;0;(0.0, 0.0);(0.0, 0.0);2;0;0.7071068;0;0.1110853;0;
4.471195;0;0;0;0;0;0;0;0;N/A;N/A;N/A;N/A;N/A;N/A;0;0;0;0;0;0;0;(0.0, 0.0);(0.0, 0.0);2;0;0.7071068;0;0.1110853;0;
4.478272;0;0;0;0;0;0;0;0;N/A;N/A;N/A;N/A;N/A;N/A;0;0;0;0;0;0;0;(0.0, 0.0);(0.0, 0.0);2;0;0.7071068;0;0.1110853;0;
4.485216;0;0;0;0;0;0;0;0;N/A;N/A;N/A;N/A;N/A;N/A;0;0;0;0;0;0;0;(0.0, 0.0);(0.0, 0.0);2;0;0.7071068;0;0.1110853;0;
4.49216;0;0;0;0;0;0;0;0;N/A;N/A;N/A;N/A;N/A;N/A;0;0;0;0;0;0;0;(0.0, 0.0);(0.0, 0.0);2;0;0.7071068;0;0.1110853;0;
4.499146;0;0;0;0;0;0;0;0;N/A;N/A;N/A;N/A;N/A;N/A;0;0;0;0;0;0;0;(0.0, 0.0);(0.0, 0.0);2;0;0.7071068;0;0.1110853;0;
4.506095;0;0;0;0;0;0;0;0;N/A;N/A;N/A;N/A;N/A;N/A;0;0;0;0;0;0;0;(0.0, 0.0);(0.0, 0.0);2;0;0.7071068;0;0.1110853;0;
4.51304;0;0;0;0;0;0;0;0;N/A;N/A;N/A;N/A;N/A;N/A;0;0;0;0;0;0;0;(0.0, 0.0);(0.0, 0.0);2;0;0.7071068;0;0.1110853;0;
4.521513;0;0;0;0;0;0;0;0;N/A;N/A;N/A;N/A;N/A;N/A;0;0;0;0;0;0;0;(0.0, 0.0);(0.0, 0.0);2;0;0.7071068;0;0.1110853;0;
4.528951;0;0;0;0;0;0;0;0;N/A;N/A;N/A;N/A;N/A;N/A;0;0;0;0;0;0;0;(0.0, 0.0);(0.0, 0.0);2;0;0.7071068;0;0.1110853;0;
4.536407;0;0;0;0;0;0;0;0;N/A;N/A;N/A;N/A;N/A;N/A;0;0;0;0;0;0;0;(0.0, 0.0);(0.0, 0.0);2;0;0.7071068;0;0.1110853;0;
4.54543;0;0;0;0;0;0;0;0;N/A;N/A;N/A;N/A;N/A;N/A;0;0;0;0;0;0;0;(0.0, 0.0);(0.0, 0.0);2;0;0.7071068;0;0.1108641;0;
4.552375;0;0;0;0;0;0;0;0;N/A;N/A;N/A;N/A;N/A;N/A;0;0;0;0;0;0;0;(0.0, 0.0);(0.0, 0.0);2;0;0.7071068;0;0.1108641;0;
4.559327;0;0;0;0;0;0;0;0;N/A;N/A;N/A;N/A;N/A;N/A;0;0;0;0;0;0;0;(0.0, 0.0);(0.0, 0.0);2;0;0.7071068;0;0.1108641;0;
4.566267;0;0;0;0;0;0;0;0;N/A;N/A;N/A;N/A;N/A;N/A;0;0;0;0;0;0;0;(0.0, 0.0);(0.0, 0.0);2;0;0.7071068;0;0.1108641;0;
4.575481;0;0;0;0;0;0;0;0;N/A;N/A;N/A;N/A;N/A;N/A;0;0;0;0;0;0;0;(0.0, 0.0);(0.0, 0.0);2;0;0.7071068;0;0.1108641;0;
4.582966;0;0;0;0;0;0;0;0;N/A;N/A;N/A;N/A;N/A;N/A;0;0;0;0;0;0;0;(0.0, 0.0);(0.0, 0.0);2;0;0.7071068;0;0.1108641;0;
4.589903;0;0;0;0;0;0;0;0;N/A;N/A;N/A;N/A;N/A;N/A;0;0;0;0;0;0;0;(0.0, 0.0);(0.0, 0.0);2;0;0.7071068;0;0.1108641;0;
4.596848;0;0;0;0;0;0;0;0;N/A;N/A;N/A;N/A;N/A;N/A;0;0;0;0;0;0;0;(0.0, 0.0);(0.0, 0.0);2;0;0.7071068;0;0.1108641;0;
4.603802;0;0;0;0;0;0;0;0;N/A;N/A;N/A;N/A;N/A;N/A;0;0;0;0;0;0;0;(0.0, 0.0);(0.0, 0.0);2;0;0.7071068;0;0.1108641;0;
4.610871;0;0;0;0;0;0;0;0;N/A;N/A;N/A;N/A;N/A;N/A;0;0;0;0;0;0;0;(0.0, 0.0);(0.0, 0.0);2;0;0.7071068;0;0.1108641;0;
4.617898;0;0;0;0;0;0;0;0;N/A;N/A;N/A;N/A;N/A;N/A;0;0;0;0;0;0;0;(0.0, 0.0);(0.0, 0.0);2;0;0.7071068;0;0.1108641;0;
4.625324;0;0;0;0;0;0;0;0;N/A;N/A;N/A;N/A;N/A;N/A;0;0;0;0;0;0;0;(0.0, 0.0);(0.0, 0.0);2;0;0.7071068;0;0.1108641;0;
4.633016;0;0;0;0;0;0;0;0;N/A;N/A;N/A;N/A;N/A;N/A;0;0;0;0;0;0;0;(0.0, 0.0);(0.0, 0.0);2;0;0.7071068;0;0.1108641;0;
4.64032;0;0;0;0;0;0;0;0;N/A;N/A;N/A;N/A;N/A;N/A;0;0;0;0;0;0;0;(0.0, 0.0);(0.0, 0.0);2;0;0.7071068;0;0.1108641;0;
4.64887;0;0;0;0;0;0;0;0;N/A;N/A;N/A;N/A;N/A;N/A;0;0;0;0;0;0;0;(0.0, 0.0);(0.0, 0.0);2;0;0.7071068;0;0.1106874;0;
4.655816;0;0;0;0;0;0;0;0;N/A;N/A;N/A;N/A;N/A;N/A;0;0;0;0;0;0;0;(0.0, 0.0);(0.0, 0.0);2;0;0.7071068;0;0.1106874;0;
4.662763;0;0;0;0;0;0;0;0;N/A;N/A;N/A;N/A;N/A;N/A;0;0;0;0;0;0;0;(0.0, 0.0);(0.0, 0.0);2;0;0.7071068;0;0.1106874;0;
4.669809;0;0;0;0;0;0;0;0;N/A;N/A;N/A;N/A;N/A;N/A;0;0;0;0;0;0;0;(0.0, 0.0);(0.0, 0.0);2;0;0.7071068;0;0.1106874;0;
4.677012;0;0;0;0;0;0;0;0;N/A;N/A;N/A;N/A;N/A;N/A;0;0;0;0;0;0;0;(0.0, 0.0);(0.0, 0.0);2;0;0.7071068;0;0.1106874;0;
4.683956;0;0;0;0;0;0;0;0;N/A;N/A;N/A;N/A;N/A;N/A;0;0;0;0;0;0;0;(0.0, 0.0);(0.0, 0.0);2;0;0.7071068;0;0.1106874;0;
4.690904;0;0;0;0;0;0;0;0;N/A;N/A;N/A;N/A;N/A;N/A;0;0;0;0;0;0;0;(0.0, 0.0);(0.0, 0.0);2;0;0.7071068;0;0.1106874;0;
4.697944;0;0;0;0;0;0;0;0;N/A;N/A;N/A;N/A;N/A;N/A;0;0;0;0;0;0;0;(0.0, 0.0);(0.0, 0.0);2;0;0.7071068;0;0.1106874;0;
4.704871;0;0;0;0;0;0;0;0;N/A;N/A;N/A;N/A;N/A;N/A;0;0;0;0;0;0;0;(0.0, 0.0);(0.0, 0.0);2;0;0.7071068;0;0.1106874;0;
4.711884;0;0;0;0;0;0;0;0;N/A;N/A;N/A;N/A;N/A;N/A;0;0;0;0;0;0;0;(0.0, 0.0);(0.0, 0.0);2;0;0.7071068;0;0.1106874;0;
4.718907;0;0;0;0;0;0;0;0;N/A;N/A;N/A;N/A;N/A;N/A;0;0;0;0;0;0;0;(0.0, 0.0);(0.0, 0.0);2;0;0.7071068;0;0.1106874;0;
4.725853;0;0;0;0;0;0;0;0;N/A;N/A;N/A;N/A;N/A;N/A;0;0;0;0;0;0;0;(0.0, 0.0);(0.0, 0.0);2;0;0.7071068;0;0.1106874;0;
4.732797;0;0;0;0;0;0;0;0;N/A;N/A;N/A;N/A;N/A;N/A;0;0;0;0;0;0;0;(0.0, 0.0);(0.0, 0.0);2;0;0.7071068;0;0.1106874;0;
4.739741;0;0;0;0;0;0;0;0;N/A;N/A;N/A;N/A;N/A;N/A;0;0;0;0;0;0;0;(0.0, 0.0);(0.0, 0.0);2;0;0.7071068;0;0.1106874;0;
4.746686;0;0;0;0;0;0;0;0;N/A;N/A;N/A;N/A;N/A;N/A;0;0;0;0;0;0;0;(0.0, 0.0);(0.0, 0.0);2;0;0.7071068;0;0.1106874;0;
4.75753;0;0;0;0;0;0;0;0;N/A;N/A;N/A;N/A;N/A;N/A;0;0;0;0;0;0;0;(0.0, 0.0);(0.0, 0.0);2;0;0.7071068;0;0.1106402;0;
4.765854;0;0;0;0;0;0;0;0;N/A;N/A;N/A;N/A;N/A;N/A;0;0;0;0;0;0;0;(0.0, 0.0);(0.0, 0.0);2;0;0.7071068;0;0.1106402;0;
4.773654;0;0;0;0;0;0;0;0;N/A;N/A;N/A;N/A;N/A;N/A;0;0;0;0;0;0;0;(0.0, 0.0);(0.0, 0.0);2;0;0.7071068;0;0.1106402;0;
4.780598;0;0;0;0;0;0;0;0;N/A;N/A;N/A;N/A;N/A;N/A;0;0;0;0;0;0;0;(0.0, 0.0);(0.0, 0.0);2;0;0.7071068;0;0.1106402;0;
4.787543;0;0;0;0;0;0;0;0;N/A;N/A;N/A;N/A;N/A;N/A;0;0;0;0;0;0;0;(0.0, 0.0);(0.0, 0.0);2;0;0.7071068;0;0.1106402;0;
4.794488;0;0;0;0;0;0;0;0;N/A;N/A;N/A;N/A;N/A;N/A;0;0;0;0;0;0;0;(0.0, 0.0);(0.0, 0.0);2;0;0.7071068;0;0.1106402;0;
4.801601;0;0;0;0;0;0;0;0;N/A;N/A;N/A;N/A;N/A;N/A;0;0;0;0;0;0;0;(0.0, 0.0);(0.0, 0.0);2;0;0.7071068;0;0.1106402;0;
4.808547;0;0;0;0;0;0;0;0;N/A;N/A;N/A;N/A;N/A;N/A;0;0;0;0;0;0;0;(0.0, 0.0);(0.0, 0.0);2;0;0.7071068;0;0.1106402;0;
4.815926;0;0;0;0;0;0;0;0;N/A;N/A;N/A;N/A;N/A;N/A;0;0;0;0;0;0;0;(0.0, 0.0);(0.0, 0.0);2;0;0.7071068;0;0.1106402;0;
4.822891;0;0;0;0;0;0;0;0;N/A;N/A;N/A;N/A;N/A;N/A;0;0;0;0;0;0;0;(0.0, 0.0);(0.0, 0.0);2;0;0.7071068;0;0.1106402;0;
4.829836;0;0;0;0;0;0;0;0;N/A;N/A;N/A;N/A;N/A;N/A;0;0;0;0;0;0;0;(0.0, 0.0);(0.0, 0.0);2;0;0.7071068;0;0.1106402;0;
4.836915;0;0;0;0;0;0;0;0;N/A;N/A;N/A;N/A;N/A;N/A;0;0;0;0;0;0;0;(0.0, 0.0);(0.0, 0.0);2;0;0.7071068;0;0.1106402;0;
4.843859;0;0;0;0;0;0;0;0;N/A;N/A;N/A;N/A;N/A;N/A;0;0;0;0;0;0;0;(0.0, 0.0);(0.0, 0.0);2;0;0.7071068;0;0.1106402;0;
4.851605;0;0;0;0;0;0;0;0;N/A;N/A;N/A;N/A;N/A;N/A;0;0;0;0;0;0;0;(0.0, 0.0);(0.0, 0.0);2;0;0.7071068;0;0.1106402;0;
4.858551;0;0;0;0;0;0;0;0;N/A;N/A;N/A;N/A;N/A;N/A;0;0;0;0;0;0;0;(0.0, 0.0);(0.0, 0.0);2;0;0.7071068;0;0.1104216;0;
4.865495;0;0;0;0;0;0;0;0;N/A;N/A;N/A;N/A;N/A;N/A;0;0;0;0;0;0;0;(0.0, 0.0);(0.0, 0.0);2;0;0.7071068;0;0.1104216;0;
4.872499;0;0;0;0;0;0;0;0;N/A;N/A;N/A;N/A;N/A;N/A;0;0;0;0;0;0;0;(0.0, 0.0);(0.0, 0.0);2;0;0.7071068;0;0.1104216;0;
4.879519;0;0;0;0;0;0;0;0;N/A;N/A;N/A;N/A;N/A;N/A;0;0;0;0;0;0;0;(0.0, 0.0);(0.0, 0.0);2;0;0.7071068;0;0.1104216;0;
4.886492;0;0;0;0;0;0;0;0;N/A;N/A;N/A;N/A;N/A;N/A;0;0;0;0;0;0;0;(0.0, 0.0);(0.0, 0.0);2;0;0.7071068;0;0.1104216;0;
4.89344;0;0;0;0;0;0;0;0;N/A;N/A;N/A;N/A;N/A;N/A;0;0;0;0;0;0;0;(0.0, 0.0);(0.0, 0.0);2;0;0.7071068;0;0.1104216;0;
4.900705;0;0;0;0;0;0;0;0;N/A;N/A;N/A;N/A;N/A;N/A;0;0;0;0;0;0;0;(0.0, 0.0);(0.0, 0.0);2;0;0.7071068;0;0.1104216;0;
4.907653;0;0;0;0;0;0;0;0;N/A;N/A;N/A;N/A;N/A;N/A;0;0;0;0;0;0;0;(0.0, 0.0);(0.0, 0.0);2;0;0.7071068;0;0.1104216;0;
4.914642;0;0;0;0;0;0;0;0;N/A;N/A;N/A;N/A;N/A;N/A;0;0;0;0;0;0;0;(0.0, 0.0);(0.0, 0.0);2;0;0.7071068;0;0.1104216;0;
4.921587;0;0;0;0;0;0;0;0;N/A;N/A;N/A;N/A;N/A;N/A;0;0;0;0;0;0;0;(0.0, 0.0);(0.0, 0.0);2;0;0.7071068;0;0.1104216;0;
4.929687;0;0;0;0;0;0;0;0;N/A;N/A;N/A;N/A;N/A;N/A;0;0;0;0;0;0;0;(0.0, 0.0);(0.0, 0.0);2;0;0.7071068;0;0.1104216;0;
4.936631;0;0;0;0;0;0;0;0;N/A;N/A;N/A;N/A;N/A;N/A;0;0;0;0;0;0;0;(0.0, 0.0);(0.0, 0.0);2;0;0.7071068;0;0.1104216;0;
4.943575;0;0;0;0;0;0;0;0;N/A;N/A;N/A;N/A;N/A;N/A;0;0;0;0;0;0;0;(0.0, 0.0);(0.0, 0.0);2;0;0.7071068;0;0.1104216;0;
4.950521;0;0;0;0;0;0;0;0;N/A;N/A;N/A;N/A;N/A;N/A;0;0;0;0;0;0;0;(0.0, 0.0);(0.0, 0.0);2;0;0.7071068;0;0.1104216;0;
4.957465;0;0;0;0;0;0;0;0;N/A;N/A;N/A;N/A;N/A;N/A;0;0;0;0;0;0;0;(0.0, 0.0);(0.0, 0.0);2;0;0.7071068;0;0.1104216;0;
4.96441;0;0;0;0;0;0;0;0;N/A;N/A;N/A;N/A;N/A;N/A;0;0;0;0;0;0;0;(0.0, 0.0);(0.0, 0.0);2;0;0.7071068;0;0.1103202;0;
4.971415;0;0;0;0;0;0;0;0;N/A;N/A;N/A;N/A;N/A;N/A;0;0;0;0;0;0;0;(0.0, 0.0);(0.0, 0.0);2;0;0.7071068;0;0.1103202;0;
4.97836;0;0;0;0;0;0;0;0;N/A;N/A;N/A;N/A;N/A;N/A;0;0;0;0;0;0;0;(0.0, 0.0);(0.0, 0.0);2;0;0.7071068;0;0.1103202;0;
4.985305;0;0;0;0;0;0;0;0;N/A;N/A;N/A;N/A;N/A;N/A;0;0;0;0;0;0;0;(0.0, 0.0);(0.0, 0.0);2;0;0.7071068;0;0.1103202;0;
4.992249;0;0;0;0;0;0;0;0;N/A;N/A;N/A;N/A;N/A;N/A;0;0;0;0;0;0;0;(0.0, 0.0);(0.0, 0.0);2;0;0.7071068;0;0.1103202;0;
4.999194;0;0;0;0;0;0;0;0;N/A;N/A;N/A;N/A;N/A;N/A;0;0;0;0;0;0;0;(0.0, 0.0);(0.0, 0.0);2;0;0.7071068;0;0.1103202;0;
5.006138;0;0;0;0;0;0;0;0;N/A;N/A;N/A;N/A;N/A;N/A;0;0;0;0;0;0;0;(0.0, 0.0);(0.0, 0.0);2;0;0.7071068;0;0.1103202;0;
5.013083;0;0;0;0;0;0;0;0;N/A;N/A;N/A;N/A;N/A;N/A;0;0;0;0;0;0;0;(0.0, 0.0);(0.0, 0.0);2;0;0.7071068;0;0.1103202;0;
5.020044;0;0;0;0;0;0;0;0;N/A;N/A;N/A;N/A;N/A;N/A;0;0;0;0;0;0;0;(0.0, 0.0);(0.0, 0.0);2;0;0.7071068;0;0.1103202;0;
5.027003;0;0;0;0;0;0;0;0;N/A;N/A;N/A;N/A;N/A;N/A;0;0;0;0;0;0;0;(0.0, 0.0);(0.0, 0.0);2;0;0.7071068;0;0.1103202;0;
5.03402;0;0;0;0;0;0;0;0;N/A;N/A;N/A;N/A;N/A;N/A;0;0;0;0;0;0;0;(0.0, 0.0);(0.0, 0.0);2;0;0.7071068;0;0.1103202;0;
5.040976;0;0;0;0;0;0;0;0;N/A;N/A;N/A;N/A;N/A;N/A;0;0;0;0;0;0;0;(0.0, 0.0);(0.0, 0.0);2;0;0.7071068;0;0.1103202;0;
5.047922;0;0;0;0;0;0;0;0;N/A;N/A;N/A;N/A;N/A;N/A;0;0;0;0;0;0;0;(0.0, 0.0);(0.0, 0.0);2;0;0.7071068;0;0.1103202;0;
5.054868;0;0;0;0;0;0;0;0;N/A;N/A;N/A;N/A;N/A;N/A;0;0;0;0;0;0;0;(0.0, 0.0);(0.0, 0.0);2;0;0.7071068;0;0.1103202;0;
5.061988;0;0;0;0;0;0;0;0;N/A;N/A;N/A;N/A;N/A;N/A;0;0;0;0;0;0;0;(0.0, 0.0);(0.0, 0.0);2;0;0.7071068;0;0.1103202;0;
5.068933;0;0;0;0;0;0;0;0;N/A;N/A;N/A;N/A;N/A;N/A;0;0;0;0;0;0;0;(0.0, 0.0);(0.0, 0.0);2;0;0.7071068;0;0.1101942;0;
5.075877;0;0;0;0;0;0;0;0;N/A;N/A;N/A;N/A;N/A;N/A;0;0;0;0;0;0;0;(0.0, 0.0);(0.0, 0.0);2;0;0.7071068;0;0.1101942;0;
5.082825;0;0;0;0;0;0;0;0;N/A;N/A;N/A;N/A;N/A;N/A;0;0;0;0;0;0;0;(0.0, 0.0);(0.0, 0.0);2;0;0.7071068;0;0.1101942;0;
5.089766;0;0;0;0;0;0;0;0;N/A;N/A;N/A;N/A;N/A;N/A;0;0;0;0;0;0;0;(0.0, 0.0);(0.0, 0.0);2;0;0.7071068;0;0.1101942;0;
5.097065;0;0;0;0;0;0;0;0;N/A;N/A;N/A;N/A;N/A;N/A;0;0;0;0;0;0;0;(0.0, 0.0);(0.0, 0.0);2;0;0.7071068;0;0.1101942;0;
5.10401;0;0;0;0;0;0;0;0;N/A;N/A;N/A;N/A;N/A;N/A;0;0;0;0;0;0;0;(0.0, 0.0);(0.0, 0.0);2;0;0.7071068;0;0.1101942;0;
5.11095;0;0;0;0;0;0;0;0;N/A;N/A;N/A;N/A;N/A;N/A;0;0;0;0;0;0;0;(0.0, 0.0);(0.0, 0.0);2;0;0.7071068;0;0.1101942;0;
5.117895;0;0;0;0;0;0;0;0;N/A;N/A;N/A;N/A;N/A;N/A;0;0;0;0;0;0;0;(0.0, 0.0);(0.0, 0.0);2;0;0.7071068;0;0.1101942;0;
5.125447;0;0;0;0;0;0;0;0;N/A;N/A;N/A;N/A;N/A;N/A;0;0;0;0;0;0;0;(0.0, 0.0);(0.0, 0.0);2;0;0.7071068;0;0.1101942;0;
5.132396;0;0;0;0;0;0;0;0;N/A;N/A;N/A;N/A;N/A;N/A;0;0;0;0;0;0;0;(0.0, 0.0);(0.0, 0.0);2;0;0.7071068;0;0.1101942;0;
5.139348;0;0;0;0;0;0;0;0;N/A;N/A;N/A;N/A;N/A;N/A;0;0;0;0;0;0;0;(0.0, 0.0);(0.0, 0.0);2;0;0.7071068;0;0.1101942;0;
5.14687;0;0;0;0;0;0;0;0;N/A;N/A;N/A;N/A;N/A;N/A;0;0;0;0;0;0;0;(0.0, 0.0);(0.0, 0.0);2;0;0.7071068;0;0.1101942;0;
5.153806;0;0;0;0;0;0;0;0;N/A;N/A;N/A;N/A;N/A;N/A;0;0;0;0;0;0;0;(0.0, 0.0);(0.0, 0.0);2;0;0.7071068;0;0.1101942;0;
5.161005;0;0;0;0;0;0;0;0;N/A;N/A;N/A;N/A;N/A;N/A;0;0;0;0;0;0;0;(0.0, 0.0);(0.0, 0.0);2;0;0.7071068;0;0.1101942;0;
5.167944;0;0;0;0;0;0;0;0;N/A;N/A;N/A;N/A;N/A;N/A;0;0;0;0;0;0;0;(0.0, 0.0);(0.0, 0.0);2;0;0.7071068;0;0.1101942;0;
