0, 1
0, 1
-1.791005E-11, 1
8.315381E-11, 1
6.208819E-11, 1
3.104409E-10, 1
-2.394829E-09, 1
-5.720982E-09, 1
3.991383E-10, 1
5.418604E-09, 1
-6.635637E-05, 1
-8.294784E-05, 1
-8.296185E-05, 1
-8.296408E-05, 1
-8.296967E-05, 1
-8.297311E-05, 1
-8.297991E-05, 1
-8.29822E-05, 1
-8.298237E-05, 1
-8.298226E-05, 1
-8.298134E-05, 1
-8.298084E-05, 1
-8.298028E-05, 1
-8.297373E-05, 1
-8.297578E-05, 1
-8.298177E-05, 1
-8.297739E-05, 1
-8.297675E-05, 1
-8.297878E-05, 1
-8.297677E-05, 1
-8.296501E-05, 1
-8.294961E-05, 1
-8.295051E-05, 1
-8.295477E-05, 1
-8.294582E-05, 1
-8.294508E-05, 1
-8.294086E-05, 1
-8.293887E-05, 1
-8.292801E-05, 1
-8.291565E-05, 1
-8.292443E-05, 1
-8.293667E-05, 1
-8.293414E-05, 1
-8.293334E-05, 1
-8.292955E-05, 1
-8.292949E-05, 1
-8.292812E-05, 1
-8.292728E-05, 1
-8.292698E-05, 1
-8.292679E-05, 1
-8.292769E-05, 1
-8.292709E-05, 1
-8.29243E-05, 1
-8.292224E-05, 1
-8.29264E-05, 1
-8.292789E-05, 1
-8.292656E-05, 1
-0.0001326978, 1
