0, 1
0, 1
-0.0008246498, 0.9999995
-0.00425572, 0.9999903
-0.008820204, 0.9999601
-0.01361377, 0.9999064
-0.01830291, 0.9998317
-0.02291924, 0.9997364
-0.02768137, 0.9996158
-0.03208886, 0.9994843
-0.03517988, 0.9993809
-0.03459771, 0.9994012
-0.03111678, 0.9995149
-0.02653207, 0.999647
-0.02192031, 0.9997588
-0.01747651, 0.9998465
-0.01282964, 0.9999167
-0.008103286, 0.9999663
-0.003381185, 0.9999934
0.001273451, 0.9999983
0.005808353, 0.9999823
0.01058614, 0.999943
0.01526654, 0.9998827
0.01981216, 0.9998026
0.02495607, 0.9996873
0.02995431, 0.9995503
0.0347988, 0.9993935
0.03916443, 0.9992321
0.04329572, 0.9990616
0.04806358, 0.9988432
0.05321217, 0.9985821
0.05809734, 0.99831
0.06240675, 0.9980505
0.06310891, 0.9980068
0.06196086, 0.9980782
0.05800132, 0.9983156
0.0533037, 0.9985775
0.04850666, 0.998822
0.04415143, 0.999024
0.03942904, 0.9992212
0.03454478, 0.9994022
0.02985564, 0.9995533
0.02513162, 0.9996833
0.02035215, 0.999792
0.01560224, 0.9998774
0.01081767, 0.9999405
0.005921255, 0.9999815
0.001417121, 0.9999983
-0.003521472, 0.9999927
-0.008462379, 0.9999633
-0.01319526, 0.9999121
-0.01793827, 0.9998382
-0.02263825, 0.9997429
-0.027193, 0.9996294
-0.03173109, 0.9994955
-0.03639527, 0.9993366
-0.04114321, 0.9991522
-0.04449356, 0.9990096
