0, 1
9.978456E-11, 1
4.656613E-10, 1
-1.146243E-09, 1
-7.716673E-09, 1
-1.633397E-08, 1
-2.063238E-08, 1
-4.52766E-08, 1
-7.335957E-08, 1
-7.636845E-08, 1
-5.444655E-08, 1
-4.52766E-08, 1
-3.849467E-08, 1
-4.928846E-08, 1
-9.972315E-08, 1
-1.601875E-07, 1
-1.960076E-07, 1
-0.0002103138, 1
-0.0003604293, 0.9999999
-0.0003604293, 0.9999999
-0.0003604293, 0.9999999
-0.0003604293, 0.9999999
-0.0003604293, 0.9999999
-0.0003604293, 0.9999999
-0.000360424, 0.9999999
-0.0003603697, 0.9999999
-0.0004001994, 0.9999999
-0.0006394868, 0.9999999
-0.0006395281, 0.9999999
-0.0006395281, 0.9999999
-0.0006395281, 0.9999999
-0.0006395281, 0.9999999
-0.0006395281, 0.9999999
-0.0006395281, 0.9999999
-0.000639527, 0.9999999
-0.0005072132, 0.9999999
-0.0004078448, 0.9999999
-0.0004076671, 0.9999999
-0.0004075915, 0.9999999
-0.0004075915, 0.9999999
-0.0004075915, 0.9999999
-0.0004075915, 0.9999999
-0.0004075915, 0.9999999
-0.0004075915, 0.9999999
-0.0004075915, 0.9999999
-0.0004075915, 0.9999999
-0.0004075915, 0.9999999
-0.0004075915, 0.9999999
-0.0004075915, 0.9999999
-0.0004075915, 0.9999999
-0.0004075915, 0.9999999
-0.0004075915, 0.9999999
-0.0004075915, 0.9999999
-0.0004075915, 0.9999999
-0.0004075915, 0.9999999
-0.0004075915, 0.9999999
-0.0004075915, 0.9999999
-0.0004075915, 0.9999999
-0.0004075915, 0.9999999
-0.0004075915, 0.9999999
