0, 0
0, 0
8.48485E-06, 0.05914296
4.257768E-05, 0.1705814
8.041605E-05, 0.2718386
0.0001152296, 0.3767501
0.0001484413, 0.4812669
0.0001821274, 0.5860077
0.0002156403, 0.6868948
0.0002506917, 0.7891527
0.0002861511, 0.8926504
0.0003154599, 0.9776388
0.0003193876, 0.9885156
0.0003195951, 0.9885157
0.0003200899, 0.9885158
0.0003203952, 0.9885158
0.0003204378, 0.9885158
0.0003204942, 0.9885157
0.000320326, 0.9885157
0.0003204388, 0.9885157
0.0003207843, 0.9885157
0.0003209391, 0.9885158
0.0003209985, 0.9885159
0.0003208433, 0.9885157
0.004073276, 0.9890413
0.0706439, 0.9983678
0.142284, 1.007054
0.1492443, 1.00765
0.1492443, 1.00765
0.1492443, 1.00765
0.1492443, 1.00765
0.1492443, 1.00765
0.1492443, 1.00765
0.1466652, 1.020265
0.143357, 1.072944
0.2119028, 1.090481
0.2993203, 1.108315
0.4014929, 1.123746
0.5000798, 1.127365
0.6035759, 1.129575
0.6950983, 1.131399
0.7954445, 1.100548
0.8950964, 1.089904
0.9571158, 1.087198
0.9575786, 1.087178
0.9575786, 1.087178
0.9575786, 1.087178
0.9575786, 1.087178
0.9575786, 1.087178
0.9575786, 1.087178
0.9575786, 1.087178
0.9575787, 1.087178
0.9575787, 1.087178
0.9575793, 1.087178
0.9575796, 1.087178
0.9575796, 1.087177
0.9575796, 1.087177
0.9575796, 1.087177
0.9575796, 1.087177
0.9575796, 1.087177
0.9575796, 1.087177
0.9575796, 1.087177
0.9575794, 1.087176
0.9575794, 1.087176
0.9575793, 1.087176
0.957579, 1.087176
0.9575791, 1.087176
0.957579, 1.087176
0.9575789, 1.087176
0.9575788, 1.087176
0.9575787, 1.087176
0.9575786, 1.087176
0.9575786, 1.087176
0.9575786, 1.087176
0.9575787, 1.087176
0.9575787, 1.087176
0.9575787, 1.087176
0.9575787, 1.087176
0.9575785, 1.087176
0.9575784, 1.087176
0.9575784, 1.087176
0.9575785, 1.087176
0.9575784, 1.087176
0.9575784, 1.087176
0.9582428, 1.087125
1.034418, 1.081348
1.160792, 1.071764
1.286431, 1.062238
1.400439, 1.056458
1.502523, 1.065772
1.60486, 1.093011
1.697473, 1.136284
1.783045, 1.197306
1.856701, 1.275934
1.908582, 1.360564
1.944003, 1.457103
1.959508, 1.558971
1.953787, 1.664979
1.926851, 1.766685
1.881606, 1.857506
1.817287, 1.940121
1.758795, 2.028996
1.728199, 2.177772
1.755026, 2.292587
1.822788, 2.39421
1.907471, 2.474367
2.050416, 2.507219
2.192658, 2.541659
2.326756, 2.591598
2.392944, 2.677079
2.397579, 2.780042
2.309261, 2.853756
2.210585, 2.833765
2.118747, 2.789556
2.034206, 2.728431
1.912166, 2.694999
1.800028, 2.714765
1.734709, 2.741018
1.733329, 2.7415
1.733329, 2.7415
1.733329, 2.7415
1.733329, 2.7415
1.733329, 2.7415
1.733329, 2.7415
1.733329, 2.7415
1.733329, 2.7415
1.733329, 2.7415
