0, 0
0, 0
0, 0
0, 0
0, 0
0, 0
0, 0
0, 0
0, 0
0, 0
0, 0
0, 0
0, 0
0, 0
0, 0
0, 0
0, 0
0, 0
0, 0
0, 0
0, 0
0, 0
0, 0
0, 0
0, 0
0, 0
0, 0
0, 0
0, 0
0, 0
0, 0
0, 0
0, 0
0, 0
0, 0
0, 0
0, 0
0, 0
0, 0
0, 0
0, 0
0, 0
0, 0
0, 0
0, 0
0, 0
0, 0
0, 0
0, 0
0, 0
0, 0
0, 0
0, 0
0, 0
0, 0
0, 0
0, 0
0, 0
0, 0
0, 0
0, 0
0, 0
0, 0
0, 0
0, 0
0, 0
0, 0
0, 0
0, 0
0, 0
0, 0
0, 0
0, 0
0, 0
0, 0
0, 0
0, 0
0, 0
0, 0
0, 0
0, 0.0008984769
1.218931E-05, 0.07358223
4.427903E-05, 0.1774508
8.764939E-05, 0.2914179
0.0001296042, 0.3952023
0.0001711609, 0.4958382
0.0002198526, 0.6160992
0.0002678821, 0.729626
0.0003118797, 0.8281872
0.0003584454, 0.934746
0.0004036122, 1.043036
0.0004468677, 1.145887
0.0004696243, 1.201691
0.0004696157, 1.201691
0.0004775798, 1.158358
0.0005236694, 1.029625
0.000576546, 0.9107405
0.0006297226, 0.7919628
0.0006819064, 0.673151
0.0007377121, 0.5424725
0.0007917232, 0.4210901
0.0008446343, 0.3030301
0.0008989998, 0.1783228
0.0009494051, 0.06607722
0.001004183, -0.05546449
0.001058608, -0.1779592
0.001104688, -0.2761124
0.00116167, -0.3825847
0.001218322, -0.4885017
0.001266656, -0.5810471
0.001320253, -0.6844487
0.001379177, -0.794198
0.001435097, -0.8975017
0.00148018, -0.9869574
0.001495948, -1.020384
0.001496858, -0.9827294
0.00151261, -0.8989551
0.001537429, -0.8132831
0.001574387, -0.7073465
0.001606798, -0.6164438
0.001648315, -0.5088729
0.001697636, -0.4014712
0.001735635, -0.3147868
0.001779137, -0.2070043
0.0018212, -0.09792002
0.001854368, -0.001977566
0.001884787, 0.08491664
