0, 0
0, 0
0, 0
0, 0.001015721
0, 0.08388928
0.003522991, 0.2136634
0.09900812, 0.3477752
0.1574975, 0.4744416
0.1575074, 0.5923611
0.1575195, 0.7235159
0.1575323, 0.851184
0.1575451, 0.9734225
0.1575494, 1.015821
0.1575494, 1.015821
0.1575494, 1.015821
0.1575494, 1.015821
0.1575499, 1.038203
0.157558, 1.154285
0.1575704, 1.265297
0.1575726, 1.28314
0.1575726, 1.28314
0.157575, 1.3321
0.157586, 1.438991
0.1575883, 1.456816
0.1575883, 1.456816
0.1575904, 1.495118
0.157597, 1.561668
0.1575971, 1.56177
0.1575976, 1.577332
0.1575993, 1.663334
0.1575994, 1.673938
0.1575994, 1.673938
0.1575993, 1.673938
0.1575993, 1.673938
0.1575994, 1.673938
0.1575993, 1.673938
0.1575989, 1.673938
0.1575979, 1.673938
0.157597, 1.673938
0.1575966, 1.673938
0.157596, 1.673938
0.1575953, 1.673939
0.1575947, 1.673939
0.157594, 1.673939
0.1575933, 1.673939
0.1575932, 1.673939
0.1575928, 1.673939
0.1575918, 1.673939
0.157591, 1.673939
0.1575908, 1.673939
0.1575902, 1.673939
0.1575897, 1.673939
0.1575891, 1.67394
0.1575889, 1.67394
0.1575888, 1.67394
0.1575884, 1.67394
0.1575878, 1.67394
0.1575872, 1.67394
0.1575862, 1.67394
0.1575862, 1.673941
0.1575859, 1.67394
0.1575854, 1.67394
0.1575853, 1.67394
0.1575848, 1.67394
0.1575842, 1.67394
0.1575837, 1.673941
0.1575832, 1.673941
0.1575826, 1.673941
0.1575818, 1.673941
0.1575812, 1.673941
0.1575804, 1.673942
0.15758, 1.673942
0.1575794, 1.673942
0.157579, 1.673942
0.1575789, 1.673943
0.1575791, 1.673942
0.1575787, 1.673942
0.1575788, 1.673942
0.1575784, 1.673943
0.1575778, 1.673942
0.1575772, 1.673943
0.1575772, 1.673943
0.1575772, 1.673943
0.1575772, 1.673943
0.1575772, 1.673943
0.1575772, 1.673943
0.1575772, 1.673943
0.1575772, 1.673943
0.1575772, 1.673943
0.1575772, 1.673943
0.1575772, 1.673943
