0, 0
0, 0
0, 0
0, 0.001015721
0, 0.07012268
0.003261836, 0.1768856
0.0827477, 0.286662
0.1290456, 0.3904287
0.128918, 0.4870178
0.1286561, 0.5944458
0.1282674, 0.6991759
0.1277654, 0.799004
0.127568, 0.832649
0.127568, 0.8326489
0.127568, 0.832649
0.127568, 0.832649
0.1274448, 0.8517417
0.1267865, 0.9474093
0.1260589, 1.037848
0.1259369, 1.051757
0.1259369, 1.051757
0.1255494, 1.093001
0.1246752, 1.180217
0.1245264, 1.194108
0.1245264, 1.194108
0.124158, 1.226451
0.1235317, 1.280129
0.1235317, 1.280129
0.1233628, 1.293699
0.1223454, 1.374525
0.1222112, 1.385128
0.1222112, 1.385128
0.1222113, 1.385128
0.1222113, 1.385128
0.1222112, 1.385128
0.1222112, 1.385128
0.1222113, 1.385128
0.1222112, 1.385128
0.1222113, 1.385128
0.1222113, 1.385128
0.1222112, 1.385128
0.1222113, 1.385128
0.1222113, 1.385128
0.1222113, 1.385128
0.1222113, 1.385128
0.1222113, 1.385128
0.1222113, 1.385128
0.1222112, 1.385128
0.1222113, 1.385128
0.1222112, 1.385128
0.1222113, 1.385128
0.1222112, 1.385128
0.1222112, 1.385128
0.1222113, 1.385128
0.1222113, 1.385128
0.1222113, 1.385128
0.1222113, 1.385128
0.1222113, 1.385128
0.1222113, 1.385128
0.1222113, 1.385128
0.1222113, 1.385128
0.1222112, 1.385128
0.1222113, 1.385128
0.1222113, 1.385128
0.1222113, 1.385128
0.1222112, 1.385128
0.1222113, 1.385128
0.1222113, 1.385128
0.1222112, 1.385128
0.1222113, 1.385128
0.1222113, 1.385128
0.1222112, 1.385128
0.1222113, 1.385128
0.1222113, 1.385128
0.1222113, 1.385128
0.1222113, 1.385128
0.1222113, 1.385128
0.1222112, 1.385128
0.1222113, 1.385128
0.1222113, 1.385128
0.1222112, 1.385128
0.1222112, 1.385128
0.1222112, 1.385128
0.1222112, 1.385128
0.1222112, 1.385128
0.1222112, 1.385128
0.1222112, 1.385128
0.1222112, 1.385128
0.1222112, 1.385128
0.1222112, 1.385128
0.1222112, 1.385128
